 1.660e-04 
 1.303e-04 
 7.295e-05 
 2.405e-05 
 7.891e-06 
 2.595e-06 
 4.034e-04 
 9.755e-05 
 2.485e-05 
 6.738e-06 
 3.034e-06 
 1.958e-06 
 1.029e-06 
 4.129e-04 
 9.755e-05 
 2.398e-05 
 6.423e-06 
 2.056e-06 
 1.143e-06 
 7.003e-07 
 4.060e-04 
 9.608e-05 
 2.408e-05 
 6.494e-06 
 1.782e-06 
 9.374e-07 
 5.328e-07 
 3.977e-04 
 9.438e-05 
 2.390e-05 
 6.456e-06 
 1.628e-06 
 8.827e-07 
 4.717e-07 
 3.898e-04 
 9.242e-05 
 2.345e-05 
 6.313e-06 
 1.596e-06 
 6.399e-07 
 3.800e-04 
 8.921e-05 
 2.263e-05 
 6.084e-06 
 1.549e-06 
 7.039e-07 
 3.740e-04 
 8.964e-05 
 2.236e-05 
 6.023e-06 
 2.337e-06 
 1.137e-06 
 3.675e-04 
 9.154e-05 
 2.427e-05 
 6.339e-06 
 2.941e-06 
 1.743e-06 
 3.514e-04 
 8.801e-05 
 2.260e-05 
 5.757e-06 
 2.436e-06 
 1.575e-06 
 3.381e-04 
 8.458e-05 
 2.084e-05 
 5.442e-06 
 1.847e-06 
 8.297e-07 
 3.254e-04 
 8.158e-05 
 2.013e-05 
 5.264e-06 
 1.479e-06 
 6.603e-07 
 1.993e-07 
 3.139e-04 
 7.945e-05 
 1.985e-05 
 5.224e-06 
 2.059e-06 
 8.458e-07 
 3.758e-07 
 3.022e-04 
 7.735e-05 
 1.927e-05 
 4.993e-06 
 1.968e-06 
 8.632e-07 
 3.869e-07 
 2.920e-04 
 7.689e-05 
 1.954e-05 
 4.929e-06 
 2.273e-06 
 9.898e-07 
 4.698e-07 
 1.641e-04 
 1.307e-04 
 1.035e-04 
 5.945e-05 
 4.864e-05 
 1.260e-05 
 5.009e-06 
 2.784e-06 
 1.302e-06 
 7.421e-07 
 4.144e-07 
 2.111e-07 
 3.625e-04 
 2.949e-04 
 2.384e-04 
 1.921e-04 
 1.542e-04 
 1.232e-04 
 7.171e-05 
 5.254e-05 
 1.282e-05 
 4.540e-06 
 2.622e-06 
 1.170e-06 
 7.061e-07 
 3.440e-07 
 2.031e-07 
 1.395e-04 
 9.300e-05 
 2.252e-05 
 7.564e-06 
 3.117e-06 
 1.396e-06 
 7.338e-07 
 4.244e-07 
 2.429e-07 
 2.405e-04 
 5.752e-05 
 1.627e-05 
 4.224e-06 
 1.702e-06 
 9.320e-07 
 4.954e-07 
 2.287e-04 
 5.325e-05 
 1.376e-05 
 3.511e-06 
 1.483e-06 
 7.855e-07 
 7.260e-07 
 7.263e-07 
 6.112e-07 
 5.996e-07 
 2.170e-04 
 5.044e-05 
 1.302e-05 
 3.265e-06 
 9.948e-07 
 6.745e-07 
 2.032e-04 
 4.502e-05 
 1.065e-05 
 2.890e-06 
 1.181e-06 
 7.933e-07 
 1.924e-04 
 4.255e-05 
 1.065e-05 
 2.838e-06 
 1.434e-06 
 8.046e-07 
 1.850e-04 
 4.158e-05 
 9.714e-06 
 2.986e-06 
 1.550e-06 
 8.776e-07 
 1.748e-04 
 3.848e-05 
 9.552e-06 
 2.887e-06 
 1.537e-06 
 9.273e-07 
 1.652e-04 
 3.663e-05 
 8.988e-06 
 2.334e-06 
 1.487e-06 
 9.595e-07 
 1.567e-04 
 3.490e-05 
 8.416e-06 
 2.757e-06 
 1.208e-06 
 7.675e-07 
 1.483e-04 
 3.292e-05 
 7.906e-06 
 3.129e-06 
 1.295e-06 
 5.655e-07 
 1.626e-07 
 1.408e-04 
 3.120e-05 
 7.575e-06 
 3.354e-06 
 1.379e-06 
 6.553e-07 
 2.228e-07 
 1.338e-04 
 3.024e-05 
 7.463e-06 
 3.464e-06 
 1.413e-06 
 6.269e-07 
 2.799e-07 
 6.419e-05 
 3.605e-05 
 1.328e-05 
 1.069e-05 
 5.717e-06 
 3.293e-06 
 1.345e-06 
 6.535e-07 
 2.711e-07 
 1.798e-07 
 1.513e-04 
 1.219e-04 
 9.786e-05 
 7.821e-05 
 6.220e-05 
 4.919e-05 
 3.863e-05 
 3.010e-05 
 2.334e-05 
 6.114e-06 
 3.176e-06 
 1.906e-06 
 7.726e-07 
 4.476e-07 
 3.850e-07 
 3.725e-07 
 3.915e-07 
 3.850e-07 
 1.922e-07 
 5.708e-05 
 1.301e-05 
 1.487e-05 
 5.771e-06 
 2.934e-06 
 1.786e-06 
 7.155e-07 
 4.327e-07 
 2.574e-07 
 5.397e-05 
 3.789e-05 
 8.209e-06 
 3.423e-06 
 2.022e-06 
 9.797e-07 
 5.160e-07 
 2.932e-07 
 9.715e-05 
 2.128e-05 
 5.167e-06 
 2.077e-06 
 1.080e-06 
 6.148e-07 
 3.541e-07 
 9.252e-05 
 1.950e-05 
 4.849e-06 
 1.697e-06 
 9.943e-07 
 4.872e-07 
 2.555e-07 
 8.898e-05 
 1.792e-05 
 4.467e-06 
 1.903e-06 
 8.826e-07 
 4.637e-07 
 3.431e-07 
 8.512e-05 
 1.712e-05 
 4.035e-06 
 1.920e-06 
 1.020e-06 
 5.204e-07 
 8.274e-05 
 1.707e-05 
 4.942e-06 
 2.026e-06 
 1.190e-06 
 5.865e-07 
 8.027e-05 
 1.641e-05 
 4.621e-06 
 2.090e-06 
 1.073e-06 
 6.200e-07 
 7.724e-05 
 1.582e-05 
 4.175e-06 
 1.810e-06 
 1.047e-06 
 6.221e-07 
 7.556e-05 
 1.534e-05 
 3.905e-06 
 1.797e-06 
 9.209e-07 
 6.014e-07 
 7.442e-05 
 1.556e-05 
 3.812e-06 
 2.139e-06 
 8.829e-07 
 4.623e-07 
 1.927e-07 
 7.405e-05 
 1.584e-05 
 4.242e-06 
 2.377e-06 
 9.759e-07 
 4.461e-07 
 1.791e-07 
 7.439e-05 
 1.711e-05 
 4.479e-06 
 2.502e-06 
 1.024e-06 
 4.361e-07 
 1.946e-07 
 2.958e-05 
 9.978e-06 
 1.025e-05 
 4.977e-06 
 2.381e-06 
 1.482e-06 
 6.634e-07 
 3.800e-07 
 1.505e-07 
 2.849e-05 
 2.158e-05 
 1.609e-05 
 1.173e-05 
 1.566e-05 
 4.920e-06 
 2.564e-06 
 1.526e-06 
 6.237e-07 
 3.491e-07 
 1.790e-07 
 7.633e-05 
 6.068e-05 
 4.795e-05 
 3.762e-05 
 2.929e-05 
 2.259e-05 
 1.723e-05 
 8.077e-06 
 6.398e-06 
 3.338e-06 
 1.976e-06 
 1.027e-06 
 5.135e-07 
 2.470e-07 
 1.181e-07 
 2.626e-05 
 2.324e-05 
 4.879e-06 
 2.609e-06 
 1.497e-06 
 7.845e-07 
 3.875e-07 
 2.164e-07 
 6.066e-05 
 9.980e-06 
 2.913e-06 
 1.394e-06 
 8.839e-07 
 5.179e-07 
 2.378e-07 
 5.828e-05 
 1.027e-05 
 3.239e-06 
 1.074e-06 
 8.011e-07 
 3.872e-07 
 1.989e-07 
 5.498e-05 
 1.110e-05 
 3.077e-06 
 1.276e-06 
 5.599e-07 
 3.707e-07 
 5.201e-05 
 1.028e-05 
 2.895e-06 
 1.390e-06 
 6.727e-07 
 3.325e-07 
 2.165e-07 
 4.964e-05 
 1.012e-05 
 3.190e-06 
 1.453e-06 
 7.801e-07 
 4.026e-07 
 4.793e-05 
 8.949e-06 
 3.028e-06 
 1.528e-06 
 1.027e-06 
 4.521e-07 
 4.762e-05 
 7.693e-06 
 2.896e-06 
 1.406e-06 
 7.529e-07 
 4.440e-07 
 4.654e-05 
 7.571e-06 
 2.568e-06 
 1.156e-06 
 7.326e-07 
 4.569e-07 
 4.522e-05 
 7.466e-06 
 2.468e-06 
 1.423e-06 
 6.089e-07 
 3.852e-07 
 4.399e-05 
 7.479e-06 
 2.819e-06 
 1.618e-06 
 6.665e-07 
 3.283e-07 
 1.255e-07 
 4.251e-05 
 7.996e-06 
 3.049e-06 
 1.770e-06 
 7.279e-07 
 3.080e-07 
 1.347e-07 
 4.161e-05 
 8.394e-06 
 3.344e-06 
 1.818e-06 
 7.631e-07 
 3.461e-07 
 1.720e-07 
 2.241e-05 
 1.268e-05 
 6.713e-06 
 6.450e-06 
 2.860e-06 
 1.717e-06 
 7.211e-07 
 3.777e-07 
 1.584e-07 
 1.855e-07 
 5.358e-05 
 4.319e-05 
 3.465e-05 
 2.769e-05 
 2.196e-05 
 1.731e-05 
 1.356e-05 
 1.061e-05 
 8.908e-06 
 3.046e-06 
 1.594e-06 
 1.011e-06 
 4.104e-07 
 2.573e-07 
 1.363e-07 
 9.214e-08 
 2.171e-05 
 6.467e-06 
 7.015e-06 
 2.853e-06 
 1.467e-06 
 9.418e-07 
 4.734e-07 
 2.300e-07 
 1.539e-07 
 1.435e-07 
 2.084e-05 
 1.459e-05 
 3.263e-06 
 1.717e-06 
 1.072e-06 
 5.426e-07 
 3.235e-07 
 1.561e-07 
 3.584e-05 
 6.961e-06 
 2.028e-06 
 1.082e-06 
 9.471e-07 
 3.724e-07 
 1.952e-07 
 3.478e-05 
 6.877e-06 
 2.094e-06 
 8.593e-07 
 5.674e-07 
 2.881e-07 
 1.323e-07 
 3.348e-05 
 6.617e-06 
 2.216e-06 
 9.704e-07 
 5.746e-07 
 2.736e-07 
 1.885e-07 
 3.270e-05 
 7.108e-06 
 2.183e-06 
 9.673e-07 
 5.166e-07 
 2.613e-07 
 3.224e-05 
 6.965e-06 
 2.236e-06 
 1.026e-06 
 5.477e-07 
 2.976e-07 
 3.156e-05 
 7.033e-06 
 2.128e-06 
 1.068e-06 
 5.395e-07 
 3.167e-07 
 3.053e-05 
 6.561e-06 
 1.932e-06 
 9.372e-07 
 5.253e-07 
 3.078e-07 
 2.991e-05 
 6.399e-06 
 1.905e-06 
 8.984e-07 
 4.734e-07 
 2.982e-07 
 2.950e-05 
 6.461e-06 
 1.925e-06 
 1.084e-06 
 4.484e-07 
 2.387e-07 
 2.908e-05 
 6.357e-06 
 2.131e-06 
 1.209e-06 
 4.967e-07 
 1.968e-07 
 1.394e-07 
 2.866e-05 
 6.128e-06 
 2.261e-06 
 1.105e-06 
 6.418e-07 
 2.717e-07 
 1.042e-07 
 2.847e-05 
 6.102e-06 
 2.234e-06 
 1.271e-06 
 5.424e-07 
 2.562e-07 
 1.334e-07 
 1.080e-05 
 8.224e-06 
 6.181e-06 
 4.865e-06 
 6.263e-06 
 2.497e-06 
 1.295e-06 
 7.708e-07 
 3.168e-07 
 1.787e-07 
 8.425e-08 
 3.090e-05 
 2.441e-05 
 1.922e-05 
 1.487e-05 
 1.161e-05 
 9.029e-06 
 6.978e-06 
 4.123e-06 
 2.952e-06 
 1.688e-06 
 8.691e-07 
 5.569e-07 
 2.877e-07 
 1.237e-07 
 5.500e-08 
 9.653e-06 
 8.070e-06 
 2.488e-06 
 1.344e-06 
 6.457e-07 
 4.322e-07 
 4.123e-07 
 1.127e-07 
 2.478e-05 
 5.148e-06 
 1.586e-06 
 7.248e-07 
 4.585e-07 
 2.945e-07 
 1.249e-07 
 2.390e-05 
 4.991e-06 
 1.490e-06 
 5.648e-07 
 3.373e-07 
 2.844e-07 
 1.419e-07 
 2.302e-05 
 4.735e-06 
 1.452e-06 
 6.295e-07 
 2.754e-07 
 1.807e-07 
 2.242e-05 
 4.872e-06 
 1.524e-06 
 6.971e-07 
 3.357e-07 
 1.870e-07 
 1.352e-07 
 2.176e-05 
 4.698e-06 
 1.606e-06 
 7.229e-07 
 3.894e-07 
 2.050e-07 
 2.087e-05 
 4.450e-06 
 1.524e-06 
 7.842e-07 
 3.796e-07 
 2.249e-07 
 2.031e-05 
 4.342e-06 
 1.597e-06 
 7.410e-07 
 3.751e-07 
 2.194e-07 
 1.990e-05 
 4.112e-06 
 1.574e-06 
 6.456e-07 
 3.769e-07 
 2.296e-07 
 1.911e-05 
 3.734e-06 
 1.411e-06 
 7.167e-07 
 3.189e-07 
 1.927e-07 
 1.915e-05 
 3.502e-06 
 1.397e-06 
 8.219e-07 
 3.414e-07 
 2.034e-07 
 7.258e-08 
 1.880e-05 
 3.539e-06 
 1.524e-06 
 9.053e-07 
 3.745e-07 
 1.543e-07 
 6.947e-08 
 1.844e-05 
 3.587e-06 
 1.624e-06 
 9.248e-07 
 3.972e-07 
 1.724e-07 
 8.884e-08 
 9.996e-06 
 5.901e-06 
 3.375e-06 
 2.488e-06 
 1.449e-06 
 8.819e-07 
 3.720e-07 
 2.062e-07 
 9.018e-08 
 4.675e-08 
 9.831e-06 
 7.873e-06 
 6.285e-06 
 5.044e-06 
 3.583e-06 
 1.697e-06 
 8.983e-07 
 5.796e-07 
 3.889e-07 
 1.534e-07 
 7.718e-08 
 6.904e-08 
 9.741e-06 
 5.801e-06 
 3.849e-06 
 1.659e-06 
 8.759e-07 
 5.676e-07 
 3.017e-07 
 1.393e-07 
 9.506e-08 
 4.547e-08 
 9.415e-06 
 5.505e-06 
 1.652e-06 
 8.724e-07 
 5.639e-07 
 3.080e-07 
 1.896e-07 
 8.401e-08 
 1.549e-05 
 3.636e-06 
 1.290e-06 
 5.903e-07 
 3.256e-07 
 1.434e-07 
 7.547e-08 
 1.488e-05 
 3.780e-06 
 1.122e-06 
 4.534e-07 
 2.641e-07 
 1.300e-07 
 7.261e-08 
 1.477e-05 
 4.052e-06 
 1.316e-06 
 4.916e-07 
 2.606e-07 
 1.815e-07 
 1.051e-07 
 1.420e-05 
 3.817e-06 
 1.292e-06 
 4.881e-07 
 2.572e-07 
 1.340e-07 
 1.330e-05 
 3.385e-06 
 1.276e-06 
 5.252e-07 
 2.725e-07 
 1.458e-07 
 1.308e-07 
 1.156e-07 
 9.951e-08 
 1.087e-07 
 9.502e-08 
 1.289e-05 
 3.202e-06 
 1.168e-06 
 5.610e-07 
 2.736e-07 
 1.530e-07 
 1.250e-05 
 3.179e-06 
 1.124e-06 
 4.966e-07 
 2.618e-07 
 1.539e-07 
 1.227e-05 
 3.186e-06 
 1.075e-06 
 4.428e-07 
 2.510e-07 
 4.035e-07 
 5.172e-08 
 1.205e-05 
 3.074e-06 
 1.062e-06 
 5.250e-07 
 2.827e-07 
 4.102e-07 
 7.655e-08 
 1.205e-05 
 3.280e-06 
 1.080e-06 
 5.314e-07 
 2.959e-07 
 1.313e-07 
 1.318e-07 
 1.166e-05 
 2.930e-06 
 1.142e-06 
 5.627e-07 
 3.179e-07 
 1.280e-07 
 4.864e-08 
 1.163e-05 
 2.168e-06 
 1.201e-06 
 5.789e-07 
 3.233e-07 
 1.452e-07 
 7.800e-08 
 6.765e-08 
 6.162e-06 
 4.843e-06 
 3.799e-06 
 3.314e-06 
 2.457e-06 
 2.475e-06 
 1.191e-06 
 6.184e-07 
 3.594e-07 
 1.473e-07 
 8.079e-08 
 4.799e-08 
 5.741e-06 
 4.499e-06 
 3.756e-06 
 2.341e-06 
 2.131e-06 
 1.102e-06 
 5.793e-07 
 3.462e-07 
 1.611e-07 
 9.536e-08 
 4.559e-08 
 5.521e-06 
 3.524e-06 
 1.272e-06 
 6.765e-07 
 3.271e-07 
 2.090e-07 
 1.161e-07 
 6.587e-08 
 2.079e-08 
 1.115e-05 
 1.695e-06 
 8.159e-07 
 3.724e-07 
 1.751e-07 
 1.197e-07 
 1.130e-07 
 1.011e-05 
 1.947e-06 
 8.057e-07 
 3.329e-07 
 2.361e-07 
 1.126e-07 
 5.306e-08 
 9.663e-06 
 2.126e-06 
 8.373e-07 
 4.126e-07 
 1.507e-07 
 3.960e-07 
 8.347e-08 
 9.445e-06 
 2.070e-06 
 8.538e-07 
 3.529e-07 
 1.714e-07 
 1.467e-07 
 1.355e-07 
 9.274e-06 
 1.666e-06 
 8.071e-07 
 4.181e-07 
 1.941e-07 
 1.444e-07 
 9.354e-06 
 1.747e-06 
 7.009e-07 
 3.968e-07 
 1.847e-07 
 1.050e-07 
 9.094e-06 
 1.537e-06 
 7.606e-07 
 6.205e-07 
 1.891e-07 
 1.099e-07 
 8.942e-06 
 1.540e-06 
 6.611e-07 
 3.467e-07 
 1.955e-07 
 1.133e-07 
 9.407e-06 
 1.300e-06 
 5.999e-07 
 3.640e-07 
 1.708e-07 
 9.634e-08 
 9.058e-06 
 1.604e-06 
 6.990e-07 
 4.221e-07 
 1.838e-07 
 1.422e-07 
 4.024e-08 
 8.820e-06 
 1.427e-06 
 7.664e-07 
 4.674e-07 
 1.955e-07 
 9.550e-08 
 7.550e-08 
 8.652e-06 
 1.479e-06 
 8.640e-07 
 4.906e-07 
 1.990e-07 
 1.300e-07 
 9.850e-08 
 5.952e-06 
 1.804e-06 
 1.463e-06 
 8.393e-07 
 5.095e-07 
 2.428e-07 
 1.906e-07 
 1.087e-07 
 5.169e-08 
 5.771e-06 
 4.711e-06 
 3.834e-06 
 3.287e-06 
 1.592e-06 
 1.141e-06 
 6.498e-07 
 4.311e-07 
 1.821e-07 
 1.113e-07 
 1.021e-07 
 6.040e-08 
 5.724e-06 
 1.644e-06 
 1.459e-06 
 7.221e-07 
 4.777e-07 
 2.034e-07 
 1.218e-07 
 6.881e-08 
 5.114e-08 
 7.941e-06 
 1.757e-06 
 7.493e-07 
 3.740e-07 
 2.080e-07 
 9.624e-08 
 5.370e-08 
 7.588e-06 
 1.928e-06 
 5.477e-07 
 3.102e-07 
 1.793e-07 
 7.551e-08 
 5.564e-08 
 6.672e-06 
 1.649e-06 
 5.397e-07 
 2.407e-07 
 1.491e-07 
 7.698e-08 
 5.630e-08 
 6.461e-06 
 1.692e-06 
 5.136e-07 
 2.487e-07 
 1.073e-07 
 1.096e-07 
 4.981e-08 
 6.192e-06 
 1.715e-06 
 5.669e-07 
 2.473e-07 
 2.661e-07 
 1.912e-07 
 1.008e-07 
 5.683e-08 
 5.676e-08 
 6.090e-06 
 1.715e-06 
 5.717e-07 
 2.713e-07 
 1.408e-07 
 6.786e-08 
 5.910e-06 
 1.706e-06 
 6.164e-07 
 2.923e-07 
 4.006e-07 
 7.728e-08 
 6.022e-06 
 1.778e-06 
 5.460e-07 
 2.753e-07 
 1.305e-07 
 7.199e-08 
 5.544e-06 
 1.759e-06 
 6.451e-07 
 7.764e-07 
 2.145e-07 
 7.476e-08 
 5.592e-06 
 1.263e-06 
 7.225e-07 
 2.418e-07 
 1.214e-07 
 6.320e-08 
 5.591e-06 
 1.130e-06 
 6.527e-07 
 8.538e-07 
 3.657e-07 
 3.969e-07 
 2.798e-07 
 8.903e-08 
 7.537e-08 
 5.404e-06 
 1.306e-06 
 6.098e-07 
 2.861e-07 
 1.308e-07 
 8.021e-08 
 6.429e-08 
 5.345e-06 
 1.324e-06 
 5.887e-07 
 2.889e-07 
 1.433e-07 
 8.350e-08 
 6.383e-08 
 4.272e-06 
 2.785e-06 
 1.585e-06 
 1.106e-06 
 5.977e-07 
 3.092e-07 
 1.471e-07 
 8.727e-08 
 3.858e-08 
 2.380e-08 
 8.400e-08 
 4.263e-06 
 3.463e-06 
 2.937e-06 
 1.136e-06 
 9.947e-07 
 6.064e-07 
 2.527e-07 
 1.202e-07 
 5.488e-08 
 3.535e-08 
 2.670e-08 
 2.030e-08 
 4.235e-06 
 2.062e-06 
 7.559e-07 
 5.737e-07 
 1.681e-07 
 7.835e-08 
 6.422e-08 
 3.866e-08 
 4.897e-06 
 1.303e-06 
 3.941e-07 
 2.029e-07 
 1.134e-07 
 7.684e-08 
 4.318e-08 
 4.715e-06 
 1.257e-06 
 4.355e-07 
 1.546e-07 
 9.201e-08 
 6.477e-08 
 3.249e-08 
 4.692e-06 
 1.273e-06 
 6.154e-07 
 8.625e-07 
 3.439e-07 
 6.688e-08 
 2.168e-08 
 4.536e-06 
 1.220e-06 
 4.449e-07 
 1.802e-07 
 2.691e-07 
 1.064e-07 
 7.318e-08 
 3.961e-07 
 8.499e-08 
 4.627e-06 
 1.055e-06 
 5.153e-07 
 2.175e-07 
 2.709e-07 
 1.286e-07 
 8.593e-08 
 4.324e-06 
 1.020e-06 
 5.414e-07 
 3.959e-07 
 2.577e-07 
 9.520e-08 
 4.202e-06 
 1.163e-06 
 5.863e-07 
 2.880e-07 
 1.028e-07 
 5.383e-08 
 4.275e-06 
 1.091e-06 
 5.950e-07 
 3.067e-07 
 5.429e-07 
 2.658e-07 
 2.158e-07 
 9.236e-08 
 4.239e-06 
 1.215e-06 
 6.245e-07 
 3.443e-07 
 3.864e-07 
 2.651e-07 
 1.260e-07 
 1.097e-07 
 2.672e-07 
 1.970e-07 
 1.712e-07 
 1.489e-07 
 3.949e-07 
 2.714e-07 
 1.274e-07 
 8.713e-08 
 3.967e-06 
 1.028e-06 
 5.897e-07 
 3.914e-07 
 2.745e-07 
 9.612e-08 
 8.903e-08 
 3.833e-06 
 9.644e-07 
 4.518e-07 
 3.881e-07 
 2.670e-07 
 1.909e-07 
 1.508e-07 
 2.657e-07 
 2.308e-07 
 3.939e-07 
 2.730e-07 
 1.267e-07 
 8.738e-08 
 3.901e-06 
 1.110e-06 
 6.643e-07 
 5.564e-07 
 5.218e-07 
 5.054e-07 
 2.972e-07 
 1.302e-07 
 9.350e-08 
 8.025e-08 
 3.764e-06 
 1.041e-06 
 6.756e-07 
 3.899e-07 
 2.928e-07 
 1.021e-07 
 8.392e-08 
 7.278e-08 
 2.643e-07 
 3.926e-07 
 2.796e-07 
 1.246e-07 
 9.207e-08 
 3.953e-07 
 2.999e-07 
 2.607e-07 
 1.918e-07 
 1.665e-07 
 3.868e-07 
 2.930e-07 
 3.523e-06 
 9.423e-07 
 5.753e-07 
 2.405e-07 
 1.321e-07 
 9.158e-08 
 5.753e-08 
 2.638e-08 
 3.393e-06 
 8.735e-07 
 5.057e-07 
 3.913e-07 
 2.756e-07 
 9.568e-08 
 2.702e-07 
 2.348e-07 
 2.042e-07 
 4.000e-07 
 2.885e-07 
 5.538e-07 
 2.161e-07 
 1.501e-07 
 3.941e-07 
 2.855e-07 
 1.354e-07 
 1.001e-07 
 1.830e-07 
 1.589e-07 
 3.376e-06 
 8.956e-07 
 5.104e-07 
 4.080e-07 
 1.127e-07 
 9.004e-08 
 4.129e-08 
 3.461e-08 
 3.050e-06 
 1.021e-06 
 6.924e-07 
 7.245e-07 
 2.399e-07 
 9.937e-08 
 6.642e-08 
 2.688e-07 
 2.332e-07 
 3.930e-07 
 2.146e-07 
 7.308e-08 
 2.921e-06 
 1.107e-06 
 5.706e-07 
 6.676e-07 
 2.574e-07 
 8.700e-08 
 8.872e-08 
 7.303e-08 
 5.113e-08 
 2.948e-06 
 1.010e-06 
 6.422e-07 
 3.998e-07 
 2.861e-07 
 9.223e-08 
 8.926e-08 
 2.840e-06 
 9.758e-07 
 4.230e-07 
 3.972e-07 
 3.553e-07 
 1.275e-07 
 2.919e-06 
 8.612e-07 
 4.474e-07 
 4.549e-07 
 1.327e-07 
 6.458e-08 
 2.947e-06 
 8.800e-07 
 4.554e-07 
 1.497e-07 
 2.662e-07 
 3.999e-07 
 3.942e-07 
 2.691e-07 
 1.989e-07 
 4.009e-07 
 4.006e-07 
 2.704e-07 
 1.299e-07 
 6.283e-08 
 2.900e-06 
 8.909e-07 
 4.759e-07 
 4.343e-07 
 1.414e-07 
 8.667e-08 
 2.858e-06 
 1.038e-06 
 5.871e-07 
 3.986e-07 
 1.310e-07 
 5.571e-08 
 6.868e-08 
 2.805e-06 
 1.003e-06 
 4.687e-07 
 3.961e-07 
 1.280e-07 
 9.077e-08 
 2.591e-08 
 2.707e-06 
 1.090e-06 
 7.768e-07 
 1.771e-07 
 1.291e-07 
 5.763e-08 
 5.484e-08 
 3.958e-08 
 2.750e-06 
 1.184e-06 
 7.733e-07 
 2.836e-07 
 2.848e-07 
 7.944e-08 
 4.684e-08 
 2.588e-06 
 1.181e-06 
 7.035e-07 
 1.878e-07 
 2.717e-07 
 1.286e-07 
 3.837e-08 
 1.612e-08 
 2.585e-06 
 1.160e-06 
 6.996e-07 
 2.709e-07 
 4.018e-07 
 6.267e-08 
 2.514e-08 
 2.129e-08 
 4.026e-07 
 2.758e-07 
 5.541e-08 
 2.566e-06 
 1.175e-06 
 4.441e-07 
 2.678e-07 
 2.737e-07 
 5.590e-08 
 1.707e-08 
 2.486e-06 
 1.226e-06 
 4.829e-07 
 1.381e-07 
 3.981e-07 
 1.880e-07 
 1.390e-07 
 1.027e-07 
 3.952e-07 
 2.865e-07 
 2.697e-07 
 1.283e-07 
 9.514e-08 
 2.722e-07 
 2.363e-07 
 3.955e-07 
 2.858e-07 
 2.486e-07 
 3.959e-07 
 2.739e-07 
 2.476e-06 
 1.252e-06 
 6.929e-07 
 1.921e-07 
 5.658e-08 
 1.116e-07 
 5.639e-08 
 4.915e-08 
 2.685e-07 
 4.844e-08 
 2.318e-06 
 1.206e-06 
 6.694e-07 
 2.792e-07 
 1.318e-07 
 1.146e-07 
 2.711e-07 
 9.722e-08 
 4.896e-08 
 2.239e-06 
 1.196e-06 
 6.611e-07 
 3.973e-07 
 5.436e-07 
 2.725e-07 
 1.294e-07 
 1.545e-07 
 3.977e-07 
 2.714e-07 
 1.283e-07 
 6.169e-08 
 3.006e-08 
 2.185e-06 
 1.164e-06 
 4.285e-07 
 3.982e-07 
 3.938e-07 
 2.689e-07 
 1.985e-07 
 1.727e-07 
 1.502e-07 
 2.624e-07 
 1.255e-07 
 1.094e-07 
 3.956e-07 
 2.711e-07 
 2.000e-07 
 2.671e-07 
 2.663e-07 
 1.965e-07 
 1.453e-07 
 1.265e-07 
 2.155e-06 
 1.255e-06 
 4.956e-07 
 3.954e-07 
 2.691e-07 
 1.980e-07 
 2.765e-07 
 4.976e-08 
 2.091e-06 
 1.234e-06 
 4.898e-07 
 3.951e-07 
 6.092e-08 
 2.791e-08 
 2.128e-06 
 1.212e-06 
 5.087e-07 
 1.054e-07 
 6.963e-08 
 4.161e-08 
 1.987e-06 
 1.279e-06 
 5.965e-07 
 1.149e-07 
 2.788e-07 
 7.671e-08 
 1.959e-06 
 1.287e-06 
 5.748e-07 
 3.936e-07 
 2.679e-07 
 1.261e-07 
 8.053e-08 
 5.528e-08 
 1.945e-06 
 1.260e-06 
 4.437e-07 
 3.945e-07 
 1.058e-07 
 8.511e-08 
 1.665e-08 
 1.891e-06 
 1.231e-06 
 4.624e-07 
 5.873e-07 
 7.184e-07 
 1.721e-07 
 3.070e-08 
 1.772e-06 
 1.224e-06 
 4.799e-07 
 1.105e-07 
 8.348e-08 
 5.632e-08 
 2.820e-08 
 1.813e-06 
 1.221e-06 
 4.844e-07 
 5.669e-07 
 1.407e-07 
 8.410e-08 
 8.623e-08 
 4.225e-08 
 2.099e-06 
 1.192e-06 
 4.445e-07 
 5.611e-07 
 1.361e-07 
 3.731e-08 
 4.366e-08 
 1.886e-08 
 2.056e-06 
 1.198e-06 
 4.461e-07 
 1.212e-07 
 6.484e-08 
 4.458e-08 
 4.544e-08 
 4.201e-08 
 2.015e-06 
 1.181e-06 
 4.193e-07 
 1.096e-07 
 6.241e-08 
 4.456e-08 
 3.252e-08 
 1.897e-06 
 1.069e-06 
 6.831e-07 
 7.161e-07 
 1.698e-07 
 6.656e-08 
 8.584e-08 
 5.918e-08 
 1.884e-06 
 1.092e-06 
 6.614e-07 
 7.124e-07 
 1.686e-07 
 2.868e-08 
 2.102e-08 
 1.850e-06 
 1.126e-06 
 6.436e-07 
 1.520e-07 
 2.785e-07 
 2.672e-07 
 6.369e-08 
 1.764e-06 
 1.036e-06 
 3.583e-07 
 8.795e-08 
 8.705e-08 
 6.237e-08 
 6.303e-08 
 6.324e-08 
 1.732e-06 
 9.924e-07 
 3.602e-07 
 1.246e-07 
 5.863e-08 
 6.272e-08 
 1.672e-06 
 9.870e-07 
 3.663e-07 
 1.157e-07 
 7.859e-08 
 6.710e-08 
 1.632e-06 
 1.004e-06 
 3.806e-07 
 1.079e-07 
 6.298e-08 
 5.003e-08 
 1.632e-06 
 9.860e-07 
 3.842e-07 
 1.053e-07 
 6.680e-08 
 7.060e-08 
 1.579e-06 
 1.067e-06 
 6.776e-07 
 3.467e-07 
 5.164e-07 
 1.631e-07 
 2.352e-08 
 1.523e-06 
 1.113e-06 
 4.062e-07 
 5.675e-07 
 1.743e-07 
 3.325e-08 
 3.354e-08 
 2.628e-08 
 1.466e-06 
 1.152e-06 
 6.779e-07 
 1.807e-07 
 5.944e-08 
 1.067e-07 
 5.921e-08 
 1.418e-06 
 1.201e-06 
 6.764e-07 
 1.758e-07 
 4.828e-08 
 7.992e-08 
 1.850e-08 
 1.464e-06 
 1.248e-06 
 4.591e-07 
 1.164e-07 
 6.385e-08 
 1.936e-08 
 3.362e-08 
 1.322e-06 
 1.265e-06 
 4.379e-07 
 1.088e-07 
 4.922e-08 
 2.164e-08 
 8.683e-09 
 1.319e-06 
 1.253e-06 
 4.132e-07 
 1.117e-07 
 5.003e-08 
 4.742e-08 
 2.183e-08 
 1.292e-06 
 1.190e-06 
 4.660e-07 
 2.724e-07 
 2.856e-07 
 9.308e-08 
 4.711e-08 
 1.295e-06 
 1.263e-06 
 4.507e-07 
 1.247e-07 
 5.889e-08 
 7.938e-08 
 4.429e-08 
 1.305e-06 
 1.267e-06 
 4.371e-07 
 1.220e-07 
 6.277e-08 
 5.038e-08 
 1.614e-08 
 1.257e-06 
 1.231e-06 
 6.697e-07 
 1.788e-07 
 5.882e-08 
 5.463e-08 
 8.766e-08 
 9.495e-08 
 1.180e-06 
 1.214e-06 
 4.116e-07 
 9.527e-08 
 3.866e-08 
 2.397e-08 
 1.153e-06 
 1.211e-06 
 4.117e-07 
 9.735e-08 
 8.559e-08 
 6.137e-08 
 1.191e-06 
 1.234e-06 
 4.205e-07 
 1.144e-07 
 9.009e-08 
 6.345e-08 
 6.297e-08 
 1.196e-06 
 1.249e-06 
 4.270e-07 
 1.475e-07 
 5.380e-08 
 1.099e-07 
 9.392e-08 
 9.357e-08 
 1.184e-06 
 1.238e-06 
 4.623e-07 
 2.797e-07 
 9.224e-08 
 2.769e-08 
 1.944e-08 
 1.166e-06 
 1.211e-06 
 4.325e-07 
 5.843e-07 
 4.897e-07 
 1.397e-07 
 5.820e-08 
 4.011e-08 
 3.386e-08 
 2.776e-07 
 2.791e-07 
 6.672e-08 
 1.161e-06 
 1.204e-06 
 4.029e-07 
 1.052e-07 
 5.318e-08 
 8.316e-08 
 5.906e-08 
 4.111e-08 
 1.162e-06 
 1.200e-06 
 6.295e-07 
 7.385e-07 
 1.799e-07 
 5.964e-08 
 6.129e-08 
 4.179e-08 
 1.221e-06 
 1.227e-06 
 4.196e-07 
 5.591e-07 
 1.503e-07 
 4.703e-08 
 2.678e-08 
 2.107e-08 
 1.217e-06 
 1.209e-06 
 4.029e-07 
 5.587e-07 
 1.493e-07 
 3.889e-08 
 1.475e-08 
 4.323e-08 
 3.801e-08 
 1.171e-06 
 1.208e-06 
 6.383e-07 
 1.505e-07 
 1.036e-07 
 4.454e-08 
 2.235e-08 
 1.168e-06 
 1.218e-06 
 6.504e-07 
 1.597e-07 
 4.657e-08 
 1.534e-08 
 7.998e-09 
 1.184e-06 
 1.214e-06 
 6.517e-07 
 1.592e-07 
 1.020e-07 
 5.335e-08 
 4.656e-08 
 2.296e-08 
 1.184e-06 
 1.209e-06 
 3.761e-07 
 2.812e-07 
 3.430e-07 
 8.239e-08 
 7.436e-08 
 6.492e-08 
 1.178e-06 
 1.218e-06 
 3.704e-07 
 8.668e-08 
 8.731e-08 
 5.218e-08 
 4.607e-08 
 1.179e-06 
 1.225e-06 
 6.428e-07 
 1.465e-07 
 8.728e-08 
 4.414e-08 
 2.364e-08 
 1.257e-08 
 1.162e-06 
 1.237e-06 
 3.677e-07 
 9.573e-08 
 1.089e-07 
 8.325e-08 
 1.407e-08 
 1.181e-06 
 1.154e-06 
 3.753e-07 
 9.626e-08 
 6.929e-08 
 1.945e-08 
 1.154e-06 
 1.148e-06 
 6.687e-07 
 1.717e-07 
 7.413e-08 
 3.449e-08 
 2.913e-08 
 4.732e-08 
 3.382e-08 
 4.542e-08 
 5.553e-08 
 4.651e-08 
 4.747e-08 
 1.123e-06 
 1.139e-06 
 6.825e-07 
 1.697e-07 
 9.037e-08 
 4.968e-08 
 4.650e-08 
 4.628e-08 
 1.117e-06 
 1.120e-06 
 6.846e-07 
 1.771e-07 
 8.202e-08 
 2.012e-08 
 1.924e-08 
 1.102e-06 
 1.107e-06 
 6.873e-07 
 1.809e-07 
 9.169e-08 
 2.889e-08 
 2.816e-08 
 1.055e-08 
 1.031e-06 
 1.112e-06 
 3.629e-07 
 9.916e-08 
 9.073e-08 
 4.781e-08 
 1.392e-08 
 1.079e-06 
 1.140e-06 
 4.301e-07 
 9.865e-08 
 9.055e-08 
 5.220e-08 
 1.523e-08 
 4.784e-08 
 1.014e-06 
 1.216e-06 
 3.742e-07 
 1.056e-07 
 9.564e-08 
 4.812e-08 
 1.568e-08 
 1.008e-06 
 1.221e-06 
 4.398e-07 
 1.086e-07 
 9.554e-08 
 4.821e-08 
 1.830e-08 
 1.764e-08 
 9.985e-07 
 1.230e-06 
 4.043e-07 
 1.055e-07 
 9.567e-08 
 3.290e-08 
 1.263e-08 
 9.936e-07 
 1.195e-06 
 3.498e-07 
 1.072e-07 
 9.517e-08 
 7.144e-08 
 3.066e-08 
 2.187e-08 
 9.788e-07 
 1.195e-06 
 3.521e-07 
 1.730e-07 
 1.051e-07 
 4.928e-08 
 3.506e-08 
 4.208e-08 
 3.443e-08 
 9.694e-07 
 1.113e-06 
 3.487e-07 
 3.793e-07 
 9.742e-08 
 3.585e-08 
 3.412e-08 
 3.284e-08 
 3.105e-08 
 9.518e-07 
 1.085e-06 
 4.190e-07 
 3.901e-07 
 3.322e-07 
 4.045e-08 
 2.747e-08 
 1.972e-08 
 9.440e-07 
 1.087e-06 
 4.222e-07 
 3.751e-07 
 3.926e-07 
 1.560e-07 
 2.619e-07 
 2.586e-07 
 4.074e-07 
 3.176e-08 
 1.810e-08 
 9.579e-07 
 1.136e-06 
 4.028e-07 
 3.322e-07 
 3.251e-07 
 9.301e-08 
 4.959e-08 
 1.714e-08 
 9.562e-07 
 1.132e-06 
 3.647e-07 
 9.235e-08 
 6.318e-08 
 2.991e-08 
 2.573e-08 
 2.420e-08 
 2.421e-08 
 2.380e-08 
 2.378e-08 
 4.499e-08 
 3.819e-08 
 3.244e-08 
 2.755e-08 
 2.272e-08 
 2.061e-08 
 2.046e-08 
 2.229e-08 
 2.284e-08 
 9.442e-07 
 1.133e-06 
 6.042e-07 
 1.882e-07 
 5.966e-08 
 4.419e-08 
 2.757e-08 
 9.433e-07 
 1.118e-06 
 6.132e-07 
 2.659e-07 
 1.263e-07 
 9.351e-08 
 6.923e-08 
 3.168e-07 
 2.809e-07 
 7.380e-08 
 2.667e-08 
 8.847e-07 
 1.121e-06 
 3.580e-07 
 3.804e-07 
 9.484e-08 
 3.070e-08 
 1.066e-08 
 9.232e-07 
 1.123e-06 
 6.101e-07 
 1.800e-07 
 9.305e-08 
 3.278e-08 
 2.123e-08 
 1.669e-08 
 9.264e-07 
 1.114e-06 
 6.106e-07 
 4.571e-07 
 2.809e-07 
 6.503e-08 
 2.233e-08 
 9.188e-07 
 1.126e-06 
 3.600e-07 
 5.651e-07 
 1.579e-07 
 4.715e-08 
 2.227e-08 
 1.200e-08 
 9.163e-07 
 1.127e-06 
 3.560e-07 
 9.526e-08 
 4.882e-08 
 4.917e-08 
 2.234e-08 
 1.002e-08 
 9.180e-07 
 1.120e-06 
 3.455e-07 
 5.505e-07 
 1.564e-07 
 1.770e-08 
 2.251e-08 
 9.191e-07 
 1.119e-06 
 3.374e-07 
 2.804e-07 
 3.482e-07 
 2.800e-07 
 6.676e-08 
 3.148e-08 
 9.179e-07 
 1.119e-06 
 4.108e-07 
 2.797e-07 
 3.472e-07 
 8.793e-08 
 4.187e-08 
 9.139e-07 
 1.124e-06 
 3.418e-07 
 2.941e-07 
 3.779e-07 
 2.798e-07 
 1.671e-07 
 1.010e-07 
 6.266e-08 
 8.697e-08 
 9.107e-07 
 1.042e-06 
 3.508e-07 
 2.687e-07 
 9.746e-08 
 5.336e-08 
 9.918e-08 
 3.748e-08 
 8.978e-07 
 1.049e-06 
 4.741e-07 
 6.764e-07 
 2.485e-07 
 1.672e-07 
 6.998e-08 
 1.175e-07 
 9.985e-08 
 1.097e-07 
 9.015e-07 
 1.050e-06 
 3.497e-07 
 3.415e-07 
 2.639e-07 
 1.526e-07 
 1.074e-07 
 6.218e-08 
 2.703e-07 
 1.995e-07 
 2.631e-07 
 1.023e-07 
 9.017e-07 
 1.050e-06 
 6.938e-07 
 1.780e-07 
 1.275e-07 
 9.189e-08 
 7.918e-08 
 2.703e-07 
 2.349e-07 
 2.042e-07 
 2.688e-07 
 1.523e-07 
 1.044e-07 
 8.858e-08 
 4.781e-08 
 9.024e-07 
 1.049e-06 
 6.990e-07 
 1.775e-07 
 7.555e-08 
 2.701e-07 
 2.651e-07 
 1.031e-07 
 9.993e-08 
 5.235e-08 
 8.943e-07 
 1.054e-06 
 7.044e-07 
 1.821e-07 
 1.272e-07 
 1.470e-07 
 1.139e-07 
 1.410e-07 
 1.104e-07 
 8.863e-07 
 1.056e-06 
 7.042e-07 
 2.669e-07 
 2.681e-07 
 4.450e-08 
 3.602e-08 
 3.140e-08 
 8.722e-07 
 1.061e-06 
 7.045e-07 
 1.827e-07 
 1.256e-07 
 5.765e-08 
 2.862e-08 
 7.639e-08 
 5.644e-08 
 3.926e-07 
 2.815e-07 
 4.185e-08 
 4.329e-08 
 8.245e-07 
 1.100e-06 
 7.000e-07 
 2.712e-07 
 1.378e-07 
 1.194e-07 
 1.035e-07 
 2.662e-07 
 1.261e-07 
 1.058e-07 
 5.625e-08 
 1.013e-07 
 8.425e-07 
 1.107e-06 
 7.042e-07 
 2.654e-07 
 2.652e-07 
 2.666e-07 
 2.652e-07 
 1.257e-07 
 9.318e-08 
 2.637e-07 
 2.660e-07 
 2.639e-07 
 2.651e-07 
 1.251e-07 
 8.123e-07 
 1.113e-06 
 3.690e-07 
 2.769e-07 
 9.927e-08 
 9.972e-08 
 6.679e-08 
 1.090e-07 
 4.090e-08 
 3.476e-08 
 1.127e-07 
 8.073e-07 
 1.116e-06 
 3.656e-07 
 1.022e-07 
 1.111e-07 
 1.014e-07 
 5.408e-08 
 2.545e-08 
 8.000e-07 
 1.095e-06 
 3.652e-07 
 3.950e-07 
 2.744e-07 
 2.643e-07 
 2.806e-07 
 1.321e-07 
 3.954e-07 
 3.172e-07 
 1.166e-07 
 5.700e-08 
 7.920e-07 
 1.093e-06 
 3.532e-07 
 2.652e-07 
 2.625e-07 
 2.627e-07 
 1.019e-07 
 5.656e-08 
 7.866e-07 
 1.089e-06 
 5.957e-07 
 2.728e-07 
 2.794e-07 
 1.292e-07 
 9.816e-08 
 1.103e-07 
 4.238e-08 
 1.145e-07 
 7.766e-07 
 1.081e-06 
 5.945e-07 
 4.014e-07 
 3.351e-07 
 2.791e-07 
 2.648e-07 
 2.811e-07 
 1.342e-07 
 9.950e-08 
 2.686e-07 
 2.660e-07 
 2.651e-07 
 1.065e-07 
 7.726e-07 
 1.059e-06 
 5.984e-07 
 1.797e-07 
 7.828e-08 
 5.703e-08 
 3.903e-07 
 2.689e-07 
 1.272e-07 
 1.150e-07 
 9.698e-08 
 2.796e-07 
 2.068e-07 
 2.182e-07 
 1.035e-07 
 1.084e-07 
 7.616e-07 
 1.058e-06 
 6.961e-07 
 4.762e-07 
 3.293e-07 
 2.787e-07 
 2.691e-07 
 1.322e-07 
 9.723e-08 
 7.540e-07 
 1.041e-06 
 5.990e-07 
 2.991e-07 
 6.373e-07 
 2.722e-07 
 1.342e-07 
 1.143e-07 
 4.436e-08 
 3.786e-08 
 5.431e-08 
 7.439e-07 
 1.040e-06 
 5.928e-07 
 3.926e-07 
 2.701e-07 
 3.939e-07 
 2.892e-07 
 3.902e-07 
 2.860e-07 
 2.691e-07 
 2.338e-07 
 3.025e-07 
 3.961e-07 
 2.802e-07 
 1.336e-07 
 9.899e-08 
 2.661e-07 
 2.458e-07 
 2.131e-07 
 2.816e-07 
 7.347e-07 
 1.035e-06 
 3.876e-07 
 3.640e-07 
 1.360e-07 
 8.916e-08 
 6.074e-08 
 7.308e-07 
 9.870e-07 
 6.956e-07 
 1.999e-07 
 1.424e-07 
 1.223e-07 
 4.066e-07 
 2.679e-07 
 2.658e-07 
 2.628e-07 
 2.284e-07 
 2.780e-07 
 1.295e-07 
 9.579e-08 
 7.359e-07 
 9.835e-07 
 5.969e-07 
 2.634e-07 
 4.109e-07 
 3.469e-07 
 2.388e-07 
 1.772e-07 
 1.305e-07 
 1.134e-07 
 2.684e-07 
 1.973e-07 
 1.714e-07 
 1.488e-07 
 2.666e-07 
 1.959e-07 
 1.442e-07 
 1.046e-07 
 7.362e-07 
 9.804e-07 
 3.961e-07 
 2.644e-07 
 2.620e-07 
 2.273e-07 
 2.773e-07 
 1.294e-07 
 1.077e-07 
 2.933e-08 
 7.368e-07 
 9.667e-07 
 3.916e-07 
 2.949e-07 
 1.380e-07 
 1.199e-07 
 2.712e-07 
 1.995e-07 
 1.471e-07 
 3.947e-07 
 3.912e-07 
 2.819e-07 
 2.655e-07 
 1.430e-07 
 1.053e-07 
 7.770e-08 
 7.345e-07 
 9.651e-07 
 4.290e-07 
 1.355e-07 
 5.729e-08 
 4.937e-08 
 4.106e-08 
 2.702e-07 
 1.989e-07 
 1.728e-07 
 2.678e-07 
 1.489e-07 
 4.332e-08 
 3.254e-08 
 2.850e-08 
 2.693e-07 
 1.981e-07 
 1.721e-07 
 2.663e-07 
 1.513e-07 
 7.874e-07 
 9.621e-07 
 4.267e-07 
 1.799e-07 
 1.032e-07 
 3.821e-08 
 3.936e-07 
 1.843e-07 
 1.359e-07 
 3.919e-07 
 2.792e-07 
 4.194e-08 
 7.336e-07 
 9.604e-07 
 4.252e-07 
 2.683e-07 
 2.672e-07 
 2.672e-07 
 1.273e-07 
 1.110e-07 
 2.682e-07 
 1.621e-07 
 6.673e-08 
 7.341e-07 
 1.004e-06 
 4.325e-07 
 2.817e-07 
 2.082e-07 
 3.894e-07 
 1.272e-07 
 4.919e-08 
 1.949e-08 
 1.054e-07 
 7.401e-07 
 8.949e-07 
 3.723e-07 
 2.701e-07 
 2.632e-07 
 2.632e-07 
 9.835e-08 
 4.646e-08 
 2.716e-07 
 2.660e-07 
 1.055e-07 
 7.314e-07 
 8.956e-07 
 3.742e-07 
 2.802e-07 
 3.074e-07 
 2.650e-07 
 1.949e-07 
 1.692e-07 
 2.687e-07 
 1.306e-07 
 4.416e-08 
 7.301e-07 
 8.955e-07 
 3.746e-07 
 3.913e-07 
 2.890e-07 
 2.506e-07 
 2.173e-07 
 2.647e-07 
 2.299e-07 
 4.034e-07 
 2.907e-07 
 1.368e-07 
 6.514e-08 
 7.218e-07 
 8.975e-07 
 4.283e-07 
 3.920e-07 
 2.596e-07 
 2.255e-07 
 4.110e-07 
 1.055e-07 
 3.846e-08 
 3.275e-08 
 3.371e-08 
 2.660e-08 
 7.254e-07 
 8.963e-07 
 3.723e-07 
 1.588e-07 
 1.121e-07 
 9.425e-08 
 2.202e-07 
 2.251e-07 
 1.263e-07 
 1.127e-07 
 9.487e-08 
 7.989e-08 
 3.268e-08 
 7.245e-07 
 8.978e-07 
 7.061e-07 
 3.932e-07 
 1.834e-07 
 2.686e-07 
 2.662e-07 
 2.908e-07 
 1.126e-07 
 4.253e-08 
 5.674e-08 
 4.790e-08 
 2.541e-08 
 7.335e-07 
 9.024e-07 
 3.743e-07 
 3.932e-07 
 1.832e-07 
 2.682e-07 
 4.007e-07 
 6.091e-08 
 2.849e-08 
 6.874e-07 
 9.041e-07 
 3.684e-07 
 3.943e-07 
 2.634e-07 
 4.144e-07 
 1.441e-07 
 5.962e-08 
 4.085e-08 
 3.113e-08 
 6.880e-07 
 9.338e-07 
 3.801e-07 
 9.315e-08 
 6.352e-08 
 4.153e-08 
 2.485e-08 
 6.779e-07 
 9.381e-07 
 3.819e-07 
 4.004e-07 
 2.731e-07 
 3.867e-07 
 3.262e-07 
 3.891e-07 
 2.679e-07 
 1.286e-07 
 1.160e-07 
 9.868e-08 
 1.942e-07 
 2.057e-07 
 1.324e-07 
 6.743e-07 
 9.407e-07 
 3.817e-07 
 2.642e-07 
 2.659e-07 
 2.615e-07 
 2.662e-07 
 1.806e-07 
 7.382e-08 
 6.759e-07 
 9.403e-07 
 4.316e-07 
 2.850e-07 
 2.627e-07 
 1.244e-07 
 1.175e-07 
 7.500e-08 
 6.665e-07 
 9.429e-07 
 3.924e-07 
 3.922e-07 
 2.701e-07 
 2.348e-07 
 2.737e-07 
 3.899e-07 
 3.893e-07 
 2.675e-07 
 3.911e-07 
 2.810e-07 
 2.440e-07 
 2.715e-07 
 1.287e-07 
 6.348e-08 
 5.490e-08 
 6.635e-07 
 9.466e-07 
 3.814e-07 
 1.618e-07 
 1.150e-07 
 2.610e-07 
 2.642e-07 
 1.490e-07 
 1.055e-07 
 7.495e-08 
 2.712e-07 
 2.356e-07 
 2.650e-07 
 1.159e-07 
 5.839e-08 
 6.590e-07 
 9.481e-07 
 3.799e-07 
 4.036e-07 
 1.382e-07 
 1.141e-07 
 2.673e-07 
 2.670e-07 
 1.246e-07 
 9.234e-08 
 9.913e-08 
 2.671e-07 
 2.687e-07 
 1.256e-07 
 6.022e-08 
 6.547e-07 
 9.478e-07 
 3.795e-07 
 2.808e-07 
 3.567e-07 
 1.057e-07 
 4.227e-08 
 3.088e-08 
 4.421e-08 
 1.114e-07 
 6.496e-07 
 9.325e-07 
 3.855e-07 
 1.624e-07 
 1.387e-07 
 2.648e-07 
 1.953e-07 
 1.698e-07 
 2.666e-07 
 1.963e-07 
 1.047e-07 
 2.208e-07 
 1.937e-07 
 1.261e-07 
 1.061e-07 
 8.993e-08 
 7.628e-08 
 2.986e-08 
 6.469e-07 
 9.326e-07 
 3.847e-07 
 3.928e-07 
 2.666e-07 
 2.674e-07 
 3.167e-07 
 1.080e-07 
 9.134e-08 
 7.730e-08 
 2.771e-08 
 3.129e-08 
 6.423e-07 
 9.147e-07 
 3.780e-07 
 3.935e-07 
 2.634e-07 
 4.143e-07 
 1.436e-07 
 6.859e-08 
 5.773e-08 
 4.039e-08 
 1.094e-07 
 6.329e-07 
 9.009e-07 
 4.327e-07 
 2.996e-07 
 3.882e-07 
 2.847e-07 
 2.664e-07 
 1.964e-07 
 4.022e-07 
 1.465e-07 
 1.255e-07 
 8.970e-08 
 4.966e-08 
 4.220e-08 
 5.008e-08 
 2.667e-07 
 1.964e-07 
 2.659e-07 
 1.529e-07 
 6.413e-08 
 6.244e-07 
 8.995e-07 
 3.710e-07 
 7.771e-08 
 4.591e-08 
 4.579e-08 
 4.556e-08 
 4.409e-08 
 4.384e-08 
 4.433e-08 
 4.443e-08 
 4.370e-08 
 4.318e-08 
 4.346e-08 
 4.376e-08 
 4.486e-08 
 4.468e-08 
 4.606e-08 
 4.428e-08 
 4.394e-08 
 6.210e-07 
 8.999e-07 
 3.718e-07 
 1.404e-07 
 3.772e-08 
 3.038e-08 
 2.699e-07 
 2.688e-07 
 1.552e-07 
 6.417e-08 
 2.741e-08 
 6.301e-07 
 8.861e-07 
 4.335e-07 
 2.791e-07 
 2.614e-07 
 1.938e-07 
 2.750e-07 
 1.294e-07 
 1.556e-07 
 1.047e-07 
 5.792e-07 
 8.996e-07 
 3.731e-07 
 2.670e-07 
 2.285e-07 
 1.957e-07 
 3.509e-07 
 8.700e-08 
 4.972e-08 
 1.919e-08 
 5.761e-07 
 8.887e-07 
 4.320e-07 
 1.449e-07 
 4.411e-08 
 3.243e-08 
 2.685e-07 
 2.690e-07 
 1.281e-07 
 1.519e-07 
 6.460e-08 
 5.840e-07 
 8.889e-07 
 4.335e-07 
 2.631e-07 
 1.250e-07 
 9.267e-08 
 6.869e-08 
 2.393e-07 
 2.152e-07 
 1.531e-07 
 6.504e-08 
 4.690e-08 
 5.752e-07 
 7.711e-07 
 3.065e-07 
 1.338e-07 
 1.160e-07 
 3.986e-07 
 2.684e-07 
 2.650e-07 
 1.943e-07 
 1.433e-07 
 2.701e-07 
 2.063e-07 
 1.559e-07 
 5.924e-07 
 7.738e-07 
 4.322e-07 
 2.843e-07 
 3.577e-07 
 2.417e-07 
 1.114e-07 
 1.084e-07 
 1.052e-07 
 5.761e-07 
 7.686e-07 
 3.370e-07 
 1.340e-07 
 6.468e-08 
 4.806e-08 
 2.671e-07 
 2.672e-07 
 1.504e-07 
 6.347e-08 
 2.772e-08 
 6.025e-07 
 7.683e-07 
 2.928e-07 
 2.640e-07 
 1.947e-07 
 1.439e-07 
 1.064e-07 
 7.875e-08 
 2.350e-07 
 2.081e-07 
 1.565e-07 
 6.568e-08 
 2.832e-08 
 6.249e-07 
 7.689e-07 
 4.326e-07 
 2.767e-07 
 2.045e-07 
 1.514e-07 
 2.718e-07 
 2.362e-07 
 2.696e-07 
 1.282e-07 
 1.128e-07 
 4.080e-08 
 6.447e-07 
 7.662e-07 
 3.369e-07 
 1.126e-07 
 9.520e-08 
 2.766e-07 
 1.298e-07 
 1.147e-07 
 5.800e-08 
 6.550e-07 
 7.694e-07 
 3.900e-07 
 2.823e-07 
 2.829e-07 
 2.695e-07 
 1.278e-07 
 2.626e-07 
 1.191e-07 
 6.732e-07 
 7.680e-07 
 3.538e-07 
 1.383e-07 
 9.705e-08 
 1.011e-07 
 4.299e-08 
 2.722e-08 
 6.907e-07 
 7.714e-07 
 3.383e-07 
 2.810e-07 
 1.343e-07 
 9.956e-08 
 7.378e-08 
 2.685e-07 
 1.545e-07 
 6.430e-08 
 7.023e-07 
 7.702e-07 
 2.920e-07 
 2.776e-07 
 7.582e-08 
 3.545e-08 
 7.143e-07 
 7.727e-07 
 3.907e-07 
 1.459e-07 
 4.304e-08 
 2.940e-08 
 2.697e-07 
 1.282e-07 
 1.556e-07 
 1.043e-07 
 7.292e-07 
 7.717e-07 
 3.560e-07 
 2.701e-07 
 2.775e-07 
 1.571e-07 
 9.323e-08 
 1.133e-07 
 5.461e-08 
 7.388e-07 
 6.978e-07 
 4.378e-07 
 2.841e-07 
 2.625e-07 
 2.610e-07 
 1.241e-07 
 1.048e-07 
 7.519e-07 
 6.994e-07 
 3.909e-07 
 3.930e-07 
 5.870e-08 
 2.664e-08 
 1.965e-08 
 3.975e-07 
 2.701e-07 
 1.277e-07 
 7.582e-07 
 7.026e-07 
 3.364e-07 
 2.691e-07 
 1.776e-07 
 1.515e-07 
 1.294e-07 
 2.712e-07 
 2.699e-07 
 1.075e-07 
 7.660e-07 
 7.256e-07 
 3.552e-07 
 2.618e-07 
 1.246e-07 
 1.058e-07 
 7.322e-08 
 6.167e-08 
 2.663e-07 
 1.235e-07 
 7.743e-07 
 7.264e-07 
 3.407e-07 
 2.803e-07 
 3.580e-07 
 2.608e-07 
 2.620e-07 
 1.262e-07 
 1.123e-07 
 7.796e-07 
 7.262e-07 
 3.884e-07 
 2.824e-07 
 3.921e-07 
 6.067e-08 
 1.100e-07 
 7.870e-07 
 7.286e-07 
 2.067e-07 
 1.504e-07 
 1.295e-07 
 2.755e-07 
 1.320e-07 
 1.118e-07 
 2.756e-07 
 1.330e-07 
 4.842e-08 
 1.866e-08 
 7.943e-07 
 7.289e-07 
 2.696e-07 
 1.448e-07 
 5.946e-08 
 5.106e-08 
 2.700e-07 
 2.664e-07 
 1.179e-07 
 3.888e-08 
 8.048e-07 
 7.293e-07 
 2.840e-07 
 2.637e-07 
 2.628e-07 
 2.619e-07 
 1.160e-07 
 7.490e-08 
 2.864e-08 
 8.141e-07 
 7.302e-07 
 2.841e-07 
 2.642e-07 
 1.947e-07 
 1.693e-07 
 2.671e-07 
 1.473e-07 
 6.114e-08 
 2.708e-07 
 2.684e-07 
 1.531e-07 
 8.244e-07 
 7.297e-07 
 5.268e-07 
 1.631e-07 
 7.269e-08 
 6.308e-08 
 2.708e-07 
 2.703e-07 
 1.515e-07 
 6.455e-08 
 8.301e-07 
 7.175e-07 
 5.273e-07 
 1.633e-07 
 7.269e-08 
 6.301e-08 
 5.441e-08 
 2.702e-07 
 2.775e-07 
 1.325e-07 
 6.422e-08 
 8.419e-07 
 7.142e-07 
 2.694e-07 
 1.449e-07 
 6.026e-08 
 5.182e-08 
 2.700e-07 
 2.670e-07 
 1.051e-07 
 8.581e-07 
 6.876e-07 
 3.372e-07 
 4.050e-07 
 1.370e-07 
 6.500e-08 
 3.560e-08 
 2.456e-08 
 2.660e-07 
 1.260e-07 
 9.330e-08 
 8.122e-08 
 8.741e-07 
 6.894e-07 
 3.874e-07 
 2.646e-07 
 1.257e-07 
 1.579e-07 
 1.371e-07 
 2.698e-07 
 1.282e-07 
 6.164e-08 
 2.989e-08 
 8.931e-07 
 6.906e-07 
 2.825e-07 
 2.666e-07 
 1.964e-07 
 1.449e-07 
 2.730e-07 
 2.371e-07 
 2.062e-07 
 3.906e-07 
 2.672e-07 
 1.703e-07 
 7.503e-08 
 9.101e-07 
 6.981e-07 
 2.899e-07 
 1.396e-07 
 7.951e-08 
 5.496e-08 
 2.734e-07 
 2.707e-07 
 1.295e-07 
 1.522e-07 
 7.026e-08 
 9.917e-07 
 6.998e-07 
 3.417e-07 
 2.794e-07 
 2.689e-07 
 2.069e-07 
 1.525e-07 
 1.126e-07 
 2.654e-07 
 2.672e-07 
 1.263e-07 
 6.067e-08 
 1.016e-06 
 7.009e-07 
 2.688e-07 
 1.275e-07 
 2.698e-07 
 2.139e-07 
 1.566e-07 
 3.916e-07 
 1.138e-07 
 5.466e-08 
 1.038e-06 
 7.022e-07 
 3.910e-07 
 1.555e-07 
 1.101e-07 
 2.612e-07 
 1.923e-07 
 2.664e-07 
 1.266e-07 
 1.396e-07 
 2.666e-07 
 2.315e-07 
 2.051e-07 
 3.931e-07 
 2.646e-07 
 2.303e-07 
 2.005e-07 
 2.640e-07 
 1.478e-07 
 1.262e-07 
 1.060e-06 
 6.488e-07 
 3.585e-07 
 1.202e-07 
 4.781e-08 
 4.161e-08 
 8.275e-08 
 6.070e-08 
 4.119e-08 
 1.083e-06 
 6.516e-07 
 5.281e-07 
 2.686e-07 
 2.333e-07 
 4.087e-07 
 2.810e-07 
 2.693e-07 
 2.775e-07 
 2.706e-07 
 2.619e-07 
 1.259e-07 
 1.104e-06 
 6.461e-07 
 2.633e-07 
 1.253e-07 
 1.046e-07 
 4.002e-08 
 2.714e-08 
 2.296e-08 
 2.662e-07 
 1.144e-07 
 1.124e-06 
 6.444e-07 
 3.384e-07 
 4.055e-07 
 2.713e-07 
 2.689e-07 
 2.674e-07 
 1.265e-07 
 1.035e-07 
 1.847e-07 
 1.361e-07 
 2.680e-07 
 1.661e-07 
 1.146e-06 
 6.466e-07 
 5.290e-07 
 1.617e-07 
 7.211e-08 
 6.258e-08 
 2.703e-07 
 2.348e-07 
 2.695e-07 
 1.642e-07 
 1.166e-07 
 8.306e-08 
 1.164e-06 
 6.458e-07 
 5.287e-07 
 1.614e-07 
 7.196e-08 
 6.246e-08 
 2.705e-07 
 2.702e-07 
 2.776e-07 
 1.324e-07 
 6.408e-08 
 1.183e-06 
 6.020e-07 
 2.688e-07 
 1.462e-07 
 5.927e-08 
 5.081e-08 
 4.307e-08 
 2.691e-07 
 2.668e-07 
 1.070e-07 
 3.958e-08 
 1.200e-06 
 6.028e-07 
 2.661e-07 
 3.933e-07 
 2.583e-07 
 4.141e-07 
 1.094e-07 
 3.997e-08 
 1.218e-06 
 6.068e-07 
 2.644e-07 
 3.930e-07 
 2.587e-07 
 4.143e-07 
 1.081e-07 
 3.928e-08 
 1.237e-06 
 6.062e-07 
 2.650e-07 
 3.926e-07 
 2.693e-07 
 2.655e-07 
 1.223e-07 
 4.502e-08 
 3.839e-08 
 1.249e-06 
 6.045e-07 
 3.578e-07 
 3.941e-07 
 1.832e-07 
 3.164e-07 
 2.655e-07 
 3.993e-07 
 5.841e-08 
 2.656e-08 
 1.242e-06 
 6.063e-07 
 2.643e-07 
 3.928e-07 
 2.585e-07 
 4.141e-07 
 1.084e-07 
 3.905e-08 
 3.332e-08 
 1.256e-06 
 6.072e-07 
 2.639e-07 
 3.929e-07 
 2.588e-07 
 4.143e-07 
 1.071e-07 
 3.863e-08 
 1.271e-06 
 6.073e-07 
 2.632e-07 
 3.927e-07 
 2.582e-07 
 4.142e-07 
 1.084e-07 
 3.908e-08 
 1.282e-06 
 6.071e-07 
 2.801e-07 
 3.935e-07 
 1.833e-07 
 2.683e-07 
 4.008e-07 
 5.848e-08 
 3.477e-08 
 1.290e-06 
 6.080e-07 
 2.342e-07 
 2.773e-07 
 3.657e-07 
 1.059e-07 
 8.191e-08 
 4.178e-08 
 1.302e-06 
 6.086e-07 
 2.782e-07 
 1.326e-07 
 6.382e-08 
 5.018e-08 
 2.942e-08 
 2.625e-08 
 1.318e-06 
 6.094e-07 
 2.364e-07 
 1.032e-07 
 5.191e-08 
 5.644e-08 
 4.912e-08 
 3.396e-08 
 2.652e-07 
 2.659e-07 
 1.960e-07 
 1.077e-07 
 2.740e-07 
 1.331e-07 
 4.843e-08 
 1.329e-06 
 6.088e-07 
 2.644e-07 
 3.926e-07 
 2.585e-07 
 4.139e-07 
 1.172e-07 
 5.251e-08 
 3.451e-08 
 3.306e-08 
 1.342e-06 
 6.088e-07 
 3.596e-07 
 3.941e-07 
 1.833e-07 
 2.681e-07 
 4.008e-07 
 5.972e-08 
 3.313e-08 
 1.353e-06 
 6.082e-07 
 2.378e-07 
 1.609e-07 
 2.773e-07 
 3.709e-07 
 1.092e-07 
 8.215e-08 
 3.056e-08 
 1.364e-06 
 6.090e-07 
 2.387e-07 
 1.062e-07 
 2.811e-07 
 7.471e-08 
 3.099e-08 
 1.342e-08 
 1.383e-06 
 6.054e-07 
 2.359e-07 
 1.067e-07 
 5.325e-08 
 8.227e-08 
 7.146e-08 
 2.660e-07 
 2.657e-07 
 1.958e-07 
 1.057e-07 
 8.911e-08 
 2.045e-07 
 1.775e-07 
 2.107e-07 
 1.238e-07 
 1.100e-07 
 1.395e-06 
 6.068e-07 
 2.653e-07 
 3.929e-07 
 2.578e-07 
 4.141e-07 
 1.074e-07 
 3.858e-08 
 3.285e-08 
 1.405e-06 
 5.934e-07 
 2.647e-07 
 3.930e-07 
 2.592e-07 
 3.869e-07 
 7.279e-08 
 2.936e-08 
 1.419e-06 
 5.827e-07 
 2.640e-07 
 3.929e-07 
 2.579e-07 
 4.141e-07 
 1.092e-07 
 3.932e-08 
 1.437e-06 
 3.861e-07 
 2.657e-07 
 3.929e-07 
 2.597e-07 
 3.868e-07 
 6.589e-08 
 3.020e-08 
 1.456e-06 
 4.761e-07 
 2.637e-07 
 3.927e-07 
 2.583e-07 
 4.141e-07 
 1.082e-07 
 3.894e-08 
 1.471e-06 
 4.797e-07 
 2.657e-07 
 3.929e-07 
 2.596e-07 
 3.868e-07 
 5.652e-08 
 1.488e-06 
 4.815e-07 
 2.651e-07 
 3.929e-07 
 2.586e-07 
 4.141e-07 
 1.086e-07 
 3.891e-08 
 1.511e-06 
 4.839e-07 
 2.656e-07 
 3.928e-07 
 2.597e-07 
 3.868e-07 
 5.644e-08 
 1.522e-06 
 4.852e-07 
 2.654e-07 
 3.929e-07 
 2.585e-07 
 4.141e-07 
 1.090e-07 
 3.918e-08 
 1.548e-06 
 4.862e-07 
 2.649e-07 
 3.928e-07 
 2.597e-07 
 3.868e-07 
 5.639e-08 
 1.569e-06 
 4.875e-07 
 2.656e-07 
 3.927e-07 
 2.661e-07 
 2.674e-07 
 1.226e-07 
 4.488e-08 
 3.822e-08 
 1.586e-06 
 4.357e-07 
 2.649e-07 
 3.929e-07 
 2.591e-07 
 2.252e-07 
 4.109e-07 
 1.083e-07 
 3.925e-08 
 1.602e-06 
 4.849e-07 
 2.640e-07 
 3.928e-07 
 2.664e-07 
 2.669e-07 
 1.227e-07 
 4.524e-08 
 1.618e-06 
 4.364e-07 
 2.651e-07 
 3.928e-07 
 2.590e-07 
 2.249e-07 
 4.109e-07 
 1.078e-07 
 3.927e-08 
 1.639e-06 
 4.846e-07 
 2.631e-07 
 3.928e-07 
 2.576e-07 
 4.141e-07 
 1.096e-07 
 3.950e-08 
 1.653e-06 
 4.834e-07 
 2.653e-07 
 3.929e-07 
 2.598e-07 
 2.256e-07 
 4.110e-07 
 1.077e-07 
 3.881e-08 
 1.671e-06 
 4.863e-07 
 2.641e-07 
 3.927e-07 
 2.614e-07 
 4.142e-07 
 1.108e-07 
 4.935e-08 
 1.686e-06 
 4.877e-07 
 2.650e-07 
 1.263e-07 
 1.130e-07 
 7.705e-08 
 6.555e-08 
 2.317e-07 
 1.792e-07 
 1.203e-07 
 1.036e-07 
 2.648e-07 
 1.254e-07 
 1.080e-07 
 1.704e-06 
 4.865e-07 
 2.557e-07 
 1.889e-07 
 1.402e-07 
 1.044e-07 
 2.713e-07 
 1.186e-07 
 4.307e-08 
 3.644e-08 
 2.517e-08 
 5.646e-08 
 1.714e-06 
 4.859e-07 
 2.767e-07 
 1.600e-07 
 7.688e-08 
 5.227e-08 
 2.727e-07 
 1.631e-07 
 1.130e-07 
 1.599e-06 
 4.838e-07 
 1.513e-07 
 6.133e-08 
 6.171e-08 
 8.218e-08 
 6.077e-09 
 1.619e-06 
 4.863e-07 
 2.676e-07 
 1.520e-07 
 3.841e-08 
 3.240e-08 
 2.702e-07 
 2.688e-07 
 1.288e-07 
 1.099e-07 
 4.198e-08 
 1.630e-06 
 4.836e-07 
 2.822e-07 
 2.645e-07 
 2.292e-07 
 2.752e-07 
 1.715e-07 
 1.263e-07 
 9.330e-08 
 1.081e-07 
 1.647e-06 
 4.839e-07 
 2.759e-07 
 2.667e-07 
 2.312e-07 
 2.007e-07 
 3.887e-07 
 2.660e-07 
 2.311e-07 
 2.695e-07 
 1.275e-07 
 1.402e-07 
 1.007e-07 
 1.658e-06 
 4.860e-07 
 2.737e-07 
 2.377e-07 
 3.892e-07 
 3.884e-07 
 2.849e-07 
 1.339e-07 
 3.977e-07 
 2.699e-07 
 2.346e-07 
 3.496e-07 
 2.715e-07 
 1.286e-07 
 1.120e-07 
 2.683e-07 
 1.273e-07 
 1.671e-06 
 4.859e-07 
 2.565e-07 
 1.899e-07 
 1.417e-07 
 3.892e-07 
 2.628e-07 
 1.059e-07 
 7.325e-08 
 2.728e-07 
 2.006e-07 
 2.680e-07 
 2.330e-07 
 3.910e-07 
 1.510e-07 
 4.568e-08 
 1.687e-06 
 4.863e-07 
 2.628e-07 
 2.661e-07 
 2.623e-07 
 2.629e-07 
 1.253e-07 
 1.064e-07 
 1.698e-06 
 4.856e-07 
 2.635e-07 
 2.635e-07 
 2.628e-07 
 2.623e-07 
 1.075e-07 
 1.708e-06 
 4.863e-07 
 1.749e-07 
 1.223e-07 
 1.032e-07 
 8.705e-08 
 2.701e-07 
 1.991e-07 
 2.658e-07 
 1.958e-07 
 1.446e-07 
 6.909e-08 
 6.020e-08 
 2.314e-07 
 1.160e-07 
 1.725e-06 
 4.845e-07 
 1.681e-07 
 1.421e-07 
 2.736e-07 
 1.320e-07 
 5.018e-08 
 2.905e-08 
 1.992e-08 
 1.369e-08 
 1.735e-06 
 4.836e-07 
 2.821e-07 
 2.657e-07 
 1.950e-07 
 1.695e-07 
 2.715e-07 
 1.962e-07 
 9.304e-08 
 1.092e-07 
 1.752e-06 
 4.597e-07 
 1.471e-07 
 1.087e-07 
 8.668e-08 
 2.772e-08 
 1.777e-06 
 4.606e-07 
 2.659e-07 
 1.449e-07 
 4.401e-08 
 2.711e-07 
 2.356e-07 
 2.696e-07 
 1.283e-07 
 1.520e-07 
 1.771e-06 
 4.477e-07 
 2.822e-07 
 1.330e-07 
 1.126e-07 
 4.193e-08 
 2.921e-08 
 6.212e-08 
 5.401e-08 
 8.294e-08 
 3.029e-08 
 1.786e-06 
 4.425e-07 
 2.663e-07 
 1.453e-07 
 4.400e-08 
 3.797e-08 
 2.704e-07 
 2.695e-07 
 1.283e-07 
 1.521e-07 
 1.799e-06 
 4.332e-07 
 2.822e-07 
 1.330e-07 
 3.292e-08 
 2.150e-08 
 2.710e-08 
 1.811e-06 
 3.562e-07 
 2.664e-07 
 1.457e-07 
 4.423e-08 
 3.795e-08 
 2.704e-07 
 2.696e-07 
 1.283e-07 
 1.526e-07 
 1.828e-06 
 3.937e-07 
 1.468e-07 
 8.153e-08 
 1.184e-07 
 1.138e-07 
 4.248e-08 
 3.674e-08 
 8.253e-08 
 3.082e-08 
 1.844e-06 
 3.990e-07 
 2.664e-07 
 1.458e-07 
 1.128e-07 
 9.510e-08 
 2.703e-07 
 2.694e-07 
 1.282e-07 
 1.528e-07 
 8.261e-08 
 1.858e-06 
 3.942e-07 
 2.762e-07 
 2.658e-07 
 2.307e-07 
 2.767e-07 
 2.031e-07 
 1.952e-07 
 1.655e-07 
 1.159e-07 
 1.872e-06 
 4.009e-07 
 1.641e-07 
 1.116e-07 
 9.461e-08 
 2.640e-07 
 1.269e-07 
 1.161e-07 
 2.663e-07 
 2.669e-07 
 2.663e-07 
 2.704e-07 
 2.348e-07 
 3.922e-07 
 2.686e-07 
 1.983e-07 
 1.726e-07 
 1.503e-07 
 2.670e-07 
 1.974e-07 
 1.886e-06 
 4.616e-07 
 3.286e-07 
 8.234e-08 
 1.199e-07 
 4.795e-08 
 1.997e-08 
 1.901e-06 
 4.444e-07 
 2.834e-07 
 1.338e-07 
 2.084e-07 
 2.653e-07 
 1.270e-07 
 1.516e-07 
 1.032e-07 
 2.667e-07 
 2.687e-07 
 2.658e-07 
 2.614e-07 
 2.271e-07 
 2.773e-07 
 2.041e-07 
 1.112e-07 
 2.127e-07 
 1.099e-07 
 1.915e-06 
 3.831e-07 
 2.832e-07 
 1.501e-07 
 1.136e-07 
 9.654e-08 
 2.699e-07 
 1.995e-07 
 2.689e-07 
 1.548e-07 
 6.346e-08 
 5.446e-08 
 1.929e-06 
 4.044e-07 
 1.487e-07 
 6.695e-08 
 4.813e-08 
 8.144e-08 
 7.080e-08 
 8.170e-08 
 1.150e-07 
 1.154e-07 
 4.294e-08 
 1.938e-06 
 3.654e-07 
 2.660e-07 
 1.456e-07 
 1.122e-07 
 2.710e-07 
 2.355e-07 
 2.697e-07 
 1.283e-07 
 1.114e-07 
 4.533e-08 
 1.955e-06 
 4.079e-07 
 2.768e-07 
 1.963e-07 
 9.846e-08 
 6.282e-08 
 2.731e-07 
 2.728e-07 
 1.306e-07 
 1.479e-07 
 1.058e-07 
 1.968e-06 
 4.496e-07 
 2.651e-07 
 2.685e-07 
 2.327e-07 
 2.016e-07 
 3.886e-07 
 2.629e-07 
 2.288e-07 
 2.703e-07 
 1.288e-07 
 1.070e-07 
 1.206e-07 
 1.162e-07 
 4.296e-08 
 4.758e-08 
 1.981e-06 
 4.487e-07 
 2.768e-07 
 1.557e-07 
 6.132e-08 
 2.716e-07 
 2.706e-07 
 1.588e-07 
 1.084e-07 
 8.297e-08 
 4.712e-08 
 1.993e-06 
 4.494e-07 
 2.720e-07 
 2.647e-07 
 1.951e-07 
 1.695e-07 
 2.732e-07 
 1.291e-07 
 1.160e-07 
 4.715e-08 
 4.043e-08 
 4.611e-08 
 2.003e-06 
 4.504e-07 
 3.916e-07 
 3.866e-07 
 2.603e-07 
 2.714e-07 
 2.002e-07 
 1.741e-07 
 1.514e-07 
 3.962e-07 
 2.722e-07 
 2.643e-07 
 1.945e-07 
 2.732e-07 
 1.289e-07 
 1.126e-07 
 2.043e-07 
 1.238e-07 
 2.016e-06 
 4.077e-07 
 2.819e-07 
 1.103e-07 
 7.751e-08 
 6.611e-08 
 8.355e-08 
 1.176e-07 
 8.527e-08 
 2.026e-06 
 4.475e-07 
 2.677e-07 
 1.521e-07 
 4.499e-08 
 4.465e-08 
 2.696e-07 
 2.683e-07 
 1.285e-07 
 1.096e-07 
 1.167e-07 
 2.040e-06 
 4.292e-07 
 2.741e-07 
 1.950e-07 
 7.559e-08 
 6.395e-08 
 2.728e-07 
 2.014e-07 
 1.489e-07 
 1.102e-07 
 9.586e-08 
 3.915e-07 
 2.703e-07 
 1.294e-07 
 2.049e-06 
 4.039e-07 
 2.843e-07 
 2.076e-07 
 1.490e-07 
 1.282e-07 
 1.103e-07 
 9.171e-08 
 4.360e-08 
 3.558e-08 
 2.720e-08 
 2.058e-06 
 4.082e-07 
 2.602e-07 
 2.615e-07 
 1.240e-07 
 1.112e-07 
 9.351e-08 
 2.652e-07 
 2.671e-07 
 2.611e-07 
 1.934e-07 
 1.435e-07 
 2.723e-07 
 1.283e-07 
 1.153e-07 
 2.069e-06 
 4.123e-07 
 2.822e-07 
 1.137e-07 
 2.786e-08 
 2.623e-08 
 2.084e-06 
 4.185e-07 
 2.665e-07 
 1.446e-07 
 1.232e-07 
 4.005e-08 
 2.959e-08 
 2.692e-07 
 2.684e-07 
 1.275e-07 
 1.514e-07 
 2.088e-06 
 4.199e-07 
 2.822e-07 
 1.333e-07 
 8.802e-08 
 3.170e-08 
 2.105e-08 
 2.099e-06 
 4.251e-07 
 2.663e-07 
 1.445e-07 
 3.909e-08 
 3.289e-08 
 2.704e-07 
 2.695e-07 
 1.281e-07 
 1.516e-07 
 2.109e-06 
 4.291e-07 
 2.821e-07 
 1.333e-07 
 6.374e-08 
 3.231e-08 
 2.633e-08 
 2.118e-06 
 4.342e-07 
 2.662e-07 
 1.446e-07 
 3.897e-08 
 3.278e-08 
 2.705e-07 
 2.695e-07 
 1.281e-07 
 1.516e-07 
 2.080e-06 
 3.978e-07 
 2.822e-07 
 1.333e-07 
 6.376e-08 
 3.424e-08 
 1.287e-08 
 2.087e-06 
 4.301e-07 
 2.661e-07 
 1.447e-07 
 3.882e-08 
 3.267e-08 
 2.705e-07 
 2.697e-07 
 1.282e-07 
 1.515e-07 
 2.097e-06 
 4.314e-07 
 2.821e-07 
 1.333e-07 
 6.378e-08 
 2.966e-08 
 1.290e-08 
 1.961e-06 
 4.285e-07 
 2.661e-07 
 1.446e-07 
 3.902e-08 
 4.005e-08 
 2.705e-07 
 2.696e-07 
 1.282e-07 
 1.516e-07 
 6.378e-08 
 1.998e-06 
 4.305e-07 
 2.759e-07 
 2.656e-07 
 2.304e-07 
 2.763e-07 
 2.029e-07 
 1.953e-07 
 1.636e-07 
 2.044e-06 
 4.135e-07 
 2.665e-07 
 2.647e-07 
 2.623e-07 
 2.622e-07 
 1.932e-07 
 1.680e-07 
 3.920e-07 
 2.826e-07 
 5.321e-08 
 2.054e-06 
 4.165e-07 
 2.682e-07 
 1.965e-07 
 1.442e-07 
 1.019e-07 
 7.052e-08 
 5.980e-08 
 2.672e-07 
 1.270e-07 
 1.106e-07 
 2.522e-07 
 2.647e-07 
 2.688e-07 
 1.284e-07 
 2.700e-07 
 2.195e-07 
 1.210e-07 
 4.950e-08 
 2.064e-06 
 4.193e-07 
 2.777e-07 
 2.675e-07 
 1.483e-07 
 1.269e-07 
 7.653e-08 
 5.183e-08 
 2.723e-07 
 2.673e-07 
 2.325e-07 
 2.024e-07 
 3.919e-07 
 2.708e-07 
 1.995e-07 
 1.179e-07 
 5.600e-08 
 2.075e-06 
 4.246e-07 
 2.617e-07 
 2.595e-07 
 1.237e-07 
 9.175e-08 
 7.990e-08 
 2.676e-07 
 1.276e-07 
 1.112e-07 
 2.408e-07 
 1.515e-07 
 2.088e-06 
 4.282e-07 
 1.823e-07 
 7.280e-08 
 3.255e-08 
 2.482e-08 
 1.930e-08 
 3.936e-07 
 2.590e-08 
 2.094e-06 
 4.324e-07 
 1.842e-07 
 1.565e-07 
 2.795e-07 
 2.628e-07 
 1.247e-07 
 1.181e-07 
 9.959e-08 
 2.683e-07 
 1.135e-07 
 2.110e-06 
 4.377e-07 
 2.646e-07 
 2.637e-07 
 2.616e-07 
 2.277e-07 
 2.771e-07 
 2.036e-07 
 1.499e-07 
 1.105e-07 
 1.139e-07 
 9.981e-08 
 2.115e-06 
 4.396e-07 
 2.762e-07 
 2.631e-07 
 2.631e-07 
 1.940e-07 
 3.932e-07 
 2.706e-07 
 2.683e-07 
 2.769e-07 
 2.031e-07 
 3.896e-07 
 2.702e-07 
 1.992e-07 
 1.731e-07 
 2.682e-07 
 2.754e-07 
 1.289e-07 
 2.123e-06 
 4.437e-07 
 4.005e-07 
 2.825e-07 
 2.682e-07 
 2.330e-07 
 2.785e-07 
 1.315e-07 
 1.148e-07 
 1.943e-07 
 9.254e-08 
 1.543e-07 
 2.133e-06 
 4.478e-07 
 2.842e-07 
 2.705e-07 
 2.708e-07 
 2.001e-07 
 2.752e-07 
 1.296e-07 
 9.836e-08 
 9.872e-08 
 2.143e-06 
 4.511e-07 
 2.205e-07 
 1.037e-07 
 5.619e-08 
 9.998e-08 
 2.148e-06 
 4.544e-07 
 2.659e-07 
 2.679e-07 
 1.965e-07 
 1.739e-07 
 2.671e-07 
 2.083e-07 
 1.095e-07 
 2.161e-06 
 4.587e-07 
 2.822e-07 
 1.036e-07 
 7.044e-08 
 2.741e-07 
 1.253e-07 
 4.655e-08 
 2.171e-06 
 4.629e-07 
 2.748e-07 
 2.685e-07 
 3.876e-07 
 2.610e-07 
 1.935e-07 
 1.687e-07 
 2.711e-07 
 1.289e-07 
 1.142e-07 
 2.175e-06 
 4.659e-07 
 2.889e-07 
 2.839e-07 
 1.327e-07 
 1.731e-08 
 1.233e-08 
 2.183e-06 
 4.687e-07 
 1.583e-07 
 1.127e-07 
 1.209e-07 
 2.682e-07 
 2.450e-07 
 1.150e-07 
 2.697e-07 
 1.983e-07 
 1.724e-07 
 2.722e-07 
 1.293e-07 
 1.134e-07 
 2.188e-06 
 4.702e-07 
 2.821e-07 
 6.773e-08 
 2.190e-08 
 5.072e-08 
 2.191e-06 
 4.720e-07 
 2.675e-07 
 1.522e-07 
 3.836e-08 
 2.708e-07 
 2.356e-07 
 2.688e-07 
 1.288e-07 
 1.103e-07 
 2.201e-06 
 4.755e-07 
 2.821e-07 
 6.609e-08 
 2.486e-08 
 9.132e-09 
 2.204e-06 
 4.783e-07 
 2.675e-07 
 1.424e-07 
 3.800e-08 
 2.709e-07 
 2.356e-07 
 2.689e-07 
 1.288e-07 
 1.103e-07 
 2.215e-06 
 4.832e-07 
 2.820e-07 
 8.169e-08 
 2.489e-08 
 2.537e-08 
 2.216e-06 
 4.758e-07 
 2.675e-07 
 1.424e-07 
 3.804e-08 
 2.709e-07 
 2.356e-07 
 2.689e-07 
 1.288e-07 
 1.103e-07 
 2.222e-06 
 4.780e-07 
 2.821e-07 
 6.389e-08 
 2.543e-08 
 2.919e-08 
 2.226e-06 
 4.816e-07 
 2.674e-07 
 1.421e-07 
 3.805e-08 
 3.207e-08 
 2.704e-07 
 2.690e-07 
 1.289e-07 
 1.103e-07 
 2.231e-06 
 4.817e-07 
 1.991e-07 
 7.397e-08 
 2.590e-08 
 2.978e-08 
 2.237e-06 
 4.855e-07 
 1.667e-07 
 8.694e-08 
 2.676e-07 
 1.976e-07 
 1.719e-07 
 2.665e-07 
 1.103e-07 
 4.216e-08 
 2.708e-07 
 2.683e-07 
 1.279e-07 
 1.528e-07 
 2.242e-06 
 4.873e-07 
 2.817e-07 
 1.329e-07 
 6.351e-08 
 3.629e-08 
 5.124e-08 
 2.249e-06 
 4.906e-07 
 2.659e-07 
 1.450e-07 
 3.916e-08 
 3.298e-08 
 2.703e-07 
 2.694e-07 
 1.283e-07 
 1.518e-07 
 2.253e-06 
 4.914e-07 
 2.819e-07 
 1.330e-07 
 4.405e-08 
 3.046e-08 
 2.270e-06 
 4.973e-07 
 2.659e-07 
 1.450e-07 
 3.914e-08 
 3.295e-08 
 2.703e-07 
 2.694e-07 
 1.283e-07 
 1.518e-07 
 2.263e-06 
 4.986e-07 
 2.819e-07 
 1.330e-07 
 4.421e-08 
 3.083e-08 
 2.276e-06 
 5.041e-07 
 2.659e-07 
 1.450e-07 
 4.479e-08 
 3.894e-08 
 2.703e-07 
 2.694e-07 
 1.282e-07 
 1.518e-07 
 2.270e-06 
 5.064e-07 
 2.819e-07 
 1.330e-07 
 4.424e-08 
 1.573e-08 
 2.280e-06 
 5.084e-07 
 2.659e-07 
 1.449e-07 
 3.921e-08 
 3.302e-08 
 2.703e-07 
 2.694e-07 
 1.282e-07 
 1.518e-07 
 2.277e-06 
 5.101e-07 
 2.818e-07 
 1.330e-07 
 4.477e-08 
 1.446e-08 
 2.286e-06 
 5.141e-07 
 2.659e-07 
 1.450e-07 
 3.926e-08 
 3.309e-08 
 2.703e-07 
 2.694e-07 
 1.282e-07 
 1.518e-07 
 2.283e-06 
 5.146e-07 
 2.818e-07 
 1.330e-07 
 4.600e-08 
 1.348e-08 
 1.992e-06 
 4.434e-07 
 2.660e-07 
 1.449e-07 
 3.908e-08 
 3.291e-08 
 2.703e-07 
 2.694e-07 
 1.282e-07 
 1.518e-07 
 1.987e-06 
 4.447e-07 
 2.818e-07 
 1.330e-07 
 4.628e-08 
 2.644e-08 
 1.851e-06 
 3.649e-07 
 2.659e-07 
 1.449e-07 
 1.022e-07 
 8.738e-08 
 5.187e-08 
 4.507e-08 
 8.157e-08 
 2.702e-07 
 2.692e-07 
 1.282e-07 
 1.522e-07 
 1.860e-06 
 3.950e-07 
 2.818e-07 
 1.330e-07 
 4.717e-08 
 3.501e-08 
 1.857e-06 
 3.442e-07 
 2.661e-07 
 1.449e-07 
 3.910e-08 
 3.293e-08 
 2.703e-07 
 2.694e-07 
 1.282e-07 
 1.518e-07 
 1.867e-06 
 3.950e-07 
 2.817e-07 
 1.330e-07 
 5.980e-08 
 4.403e-08 
 8.159e-08 
 3.234e-08 
 1.860e-06 
 3.396e-07 
 2.660e-07 
 1.449e-07 
 3.908e-08 
 3.292e-08 
 2.703e-07 
 2.694e-07 
 1.282e-07 
 1.518e-07 
 1.864e-06 
 3.951e-07 
 2.817e-07 
 1.329e-07 
 4.020e-08 
 3.512e-08 
 1.858e-06 
 3.629e-07 
 2.661e-07 
 1.449e-07 
 3.910e-08 
 3.293e-08 
 2.703e-07 
 2.694e-07 
 1.282e-07 
 1.518e-07 
 1.863e-06 
 3.951e-07 
 2.817e-07 
 1.329e-07 
 8.177e-08 
 1.418e-08 
 1.862e-06 
 3.396e-07 
 2.660e-07 
 1.449e-07 
 3.908e-08 
 3.290e-08 
 2.703e-07 
 2.694e-07 
 1.282e-07 
 1.518e-07 
 1.863e-06 
 3.950e-07 
 2.817e-07 
 1.329e-07 
 4.851e-08 
 1.721e-08 
 1.868e-06 
 3.428e-07 
 2.660e-07 
 1.449e-07 
 3.907e-08 
 3.290e-08 
 2.703e-07 
 2.694e-07 
 1.282e-07 
 1.518e-07 
 1.865e-06 
 3.951e-07 
 2.817e-07 
 1.329e-07 
 4.020e-08 
 4.263e-08 
 1.867e-06 
 3.735e-07 
 2.660e-07 
 1.449e-07 
 3.927e-08 
 3.310e-08 
 2.703e-07 
 2.694e-07 
 1.282e-07 
 1.518e-07 
 1.867e-06 
 3.951e-07 
 2.817e-07 
 1.329e-07 
 4.894e-08 
 1.667e-08 
 1.866e-06 
 3.521e-07 
 2.659e-07 
 1.449e-07 
 3.920e-08 
 3.301e-08 
 2.703e-07 
 2.694e-07 
 1.282e-07 
 1.518e-07 
 1.866e-06 
 3.951e-07 
 2.817e-07 
 1.329e-07 
 4.015e-08 
 1.700e-08 
 1.870e-06 
 3.564e-07 
 2.660e-07 
 1.450e-07 
 3.923e-08 
 3.303e-08 
 2.703e-07 
 2.694e-07 
 1.282e-07 
 1.518e-07 
 1.866e-06 
 3.951e-07 
 2.817e-07 
 1.329e-07 
 4.160e-08 
 5.135e-08 
 1.870e-06 
 3.610e-07 
 2.659e-07 
 1.450e-07 
 3.922e-08 
 3.303e-08 
 2.703e-07 
 2.694e-07 
 1.282e-07 
 1.518e-07 
 1.866e-06 
 3.951e-07 
 2.817e-07 
 1.329e-07 
 6.351e-08 
 5.978e-08 
 8.206e-08 
 1.865e-06 
 3.533e-07 
 2.659e-07 
 1.450e-07 
 3.924e-08 
 3.305e-08 
 2.703e-07 
 2.694e-07 
 1.282e-07 
 1.518e-07 
 1.865e-06 
 3.951e-07 
 2.817e-07 
 1.329e-07 
 2.286e-08 
 1.235e-08 
 1.864e-06 
 3.894e-07 
 2.659e-07 
 1.450e-07 
 3.921e-08 
 3.302e-08 
 2.703e-07 
 2.694e-07 
 1.282e-07 
 1.518e-07 
 1.864e-06 
 3.950e-07 
 2.817e-07 
 1.329e-07 
 1.807e-08 
 1.612e-08 
 1.864e-06 
 3.660e-07 
 2.659e-07 
 1.450e-07 
 3.927e-08 
 3.307e-08 
 2.703e-07 
 2.694e-07 
 1.282e-07 
 1.518e-07 
 1.861e-06 
 3.950e-07 
 2.817e-07 
 1.329e-07 
 3.992e-08 
 1.586e-08 
 1.861e-06 
 3.711e-07 
 2.659e-07 
 1.450e-07 
 3.923e-08 
 3.304e-08 
 2.703e-07 
 2.694e-07 
 1.282e-07 
 1.518e-07 
 1.857e-06 
 3.950e-07 
 2.817e-07 
 1.329e-07 
 2.348e-08 
 1.273e-08 
 1.859e-06 
 3.710e-07 
 2.659e-07 
 1.450e-07 
 3.927e-08 
 3.309e-08 
 2.703e-07 
 2.694e-07 
 1.282e-07 
 1.518e-07 
 1.853e-06 
 3.950e-07 
 2.817e-07 
 1.330e-07 
 6.354e-08 
 2.363e-08 
 1.844e-06 
 3.654e-07 
 1.306e-07 
 1.031e-07 
 8.618e-08 
 8.325e-08 
 5.816e-08 
 4.302e-08 
 1.848e-06 
 3.672e-07 
 2.671e-07 
 1.509e-07 
 3.783e-08 
 2.571e-08 
 2.697e-07 
 2.682e-07 
 1.285e-07 
 1.096e-07 
 1.844e-06 
 3.946e-07 
 2.817e-07 
 7.661e-08 
 3.055e-08 
 2.287e-08 
 3.140e-08 
 5.970e-08 
 5.182e-08 
 8.196e-08 
 1.845e-06 
 3.731e-07 
 2.671e-07 
 1.511e-07 
 3.805e-08 
 3.207e-08 
 2.703e-07 
 2.688e-07 
 1.289e-07 
 1.471e-07 
 1.839e-06 
 3.948e-07 
 2.818e-07 
 1.331e-07 
 6.369e-08 
 6.110e-08 
 2.004e-08 
 1.839e-06 
 3.711e-07 
 2.671e-07 
 1.511e-07 
 4.008e-08 
 3.479e-08 
 2.703e-07 
 2.688e-07 
 1.289e-07 
 1.106e-07 
 1.835e-06 
 3.946e-07 
 2.817e-07 
 8.152e-08 
 2.067e-08 
 1.005e-08 
 1.825e-06 
 3.677e-07 
 2.671e-07 
 1.509e-07 
 3.821e-08 
 2.709e-07 
 2.356e-07 
 2.688e-07 
 1.288e-07 
 1.107e-07 
 1.825e-06 
 3.946e-07 
 2.817e-07 
 7.268e-08 
 2.003e-08 
 3.285e-08 
 1.820e-06 
 3.688e-07 
 2.671e-07 
 1.509e-07 
 3.819e-08 
 2.709e-07 
 2.356e-07 
 2.688e-07 
 1.289e-07 
 1.107e-07 
 1.818e-06 
 3.946e-07 
 2.817e-07 
 7.339e-08 
 3.104e-08 
 2.185e-08 
 1.812e-06 
 3.707e-07 
 2.671e-07 
 1.509e-07 
 3.817e-08 
 2.709e-07 
 2.356e-07 
 2.688e-07 
 1.288e-07 
 1.107e-07 
 1.810e-06 
 3.947e-07 
 2.817e-07 
 7.259e-08 
 2.071e-08 
 2.282e-08 
 1.804e-06 
 3.702e-07 
 2.672e-07 
 1.507e-07 
 3.818e-08 
 2.710e-07 
 2.356e-07 
 2.689e-07 
 1.289e-07 
 1.107e-07 
 1.802e-06 
 3.946e-07 
 2.817e-07 
 7.221e-08 
 3.078e-08 
 2.540e-08 
 1.794e-06 
 3.707e-07 
 2.671e-07 
 1.410e-07 
 3.827e-08 
 3.225e-08 
 2.705e-07 
 2.689e-07 
 1.289e-07 
 1.469e-07 
 1.790e-06 
 3.947e-07 
 2.817e-07 
 1.331e-07 
 6.368e-08 
 2.667e-08 
 1.780e-06 
 3.708e-07 
 2.671e-07 
 1.408e-07 
 3.826e-08 
 3.225e-08 
 2.706e-07 
 2.689e-07 
 1.289e-07 
 1.107e-07 
 1.780e-06 
 3.945e-07 
 2.817e-07 
 3.988e-08 
 2.093e-08 
 9.809e-09 
 1.772e-06 
 3.716e-07 
 2.669e-07 
 1.408e-07 
 3.823e-08 
 2.712e-07 
 2.358e-07 
 2.690e-07 
 1.289e-07 
 1.107e-07 
 1.771e-06 
 3.946e-07 
 2.816e-07 
 4.125e-08 
 2.519e-08 
 3.570e-08 
 1.765e-06 
 3.709e-07 
 2.670e-07 
 1.409e-07 
 3.822e-08 
 2.712e-07 
 2.358e-07 
 2.690e-07 
 1.289e-07 
 1.108e-07 
 1.759e-06 
 3.946e-07 
 2.817e-07 
 4.356e-08 
 3.057e-08 
 3.114e-08 
 1.753e-06 
 3.710e-07 
 2.670e-07 
 1.409e-07 
 3.823e-08 
 2.712e-07 
 2.358e-07 
 2.690e-07 
 1.289e-07 
 1.108e-07 
 1.749e-06 
 3.946e-07 
 2.816e-07 
 4.069e-08 
 1.949e-08 
 2.542e-08 
 1.742e-06 
 3.737e-07 
 2.670e-07 
 1.505e-07 
 3.823e-08 
 2.710e-07 
 2.357e-07 
 2.689e-07 
 1.289e-07 
 1.108e-07 
 1.736e-06 
 3.946e-07 
 2.816e-07 
 4.225e-08 
 2.177e-08 
 1.483e-08 
 1.730e-06 
 3.717e-07 
 2.669e-07 
 1.505e-07 
 3.824e-08 
 2.711e-07 
 2.357e-07 
 2.689e-07 
 1.289e-07 
 1.108e-07 
 1.729e-06 
 3.946e-07 
 2.816e-07 
 4.193e-08 
 2.040e-08 
 9.566e-09 
 1.726e-06 
 3.710e-07 
 2.669e-07 
 1.505e-07 
 3.822e-08 
 2.711e-07 
 2.357e-07 
 2.689e-07 
 1.289e-07 
 1.109e-07 
 1.726e-06 
 3.946e-07 
 2.817e-07 
 4.043e-08 
 1.890e-08 
 3.664e-08 
 1.721e-06 
 3.720e-07 
 2.669e-07 
 1.506e-07 
 3.856e-08 
 3.250e-08 
 2.704e-07 
 2.688e-07 
 1.289e-07 
 1.469e-07 
 1.715e-06 
 3.947e-07 
 2.817e-07 
 1.331e-07 
 6.368e-08 
 1.743e-08 
 1.706e-06 
 3.760e-07 
 1.170e-07 
 4.814e-08 
 6.320e-08 
 5.260e-08 
 3.113e-08 
 2.201e-08 
 1.712e-06 
 3.860e-07 
 1.205e-07 
 6.559e-08 
 5.814e-08 
 2.672e-07 
 2.322e-07 
 2.670e-07 
 1.509e-07 
 1.064e-07 
 7.528e-08 
 4.591e-08 
 3.103e-08 
 1.704e-06 
 3.928e-07 
 1.205e-07 
 9.022e-08 
 4.226e-08 
 3.581e-08 
 2.667e-07 
 2.316e-07 
 2.659e-07 
 1.516e-07 
 6.403e-08 
 1.696e-06 
 3.940e-07 
 2.816e-07 
 4.580e-08 
 5.985e-08 
 5.196e-08 
 4.512e-08 
 8.170e-08 
 8.192e-08 
 1.685e-06 
 3.941e-07 
 1.215e-07 
 9.571e-08 
 3.997e-08 
 5.685e-08 
 1.682e-06 
 3.956e-07 
 1.229e-07 
 8.486e-08 
 6.602e-08 
 6.439e-08 
 2.676e-07 
 1.975e-07 
 2.668e-07 
 1.503e-07 
 1.060e-07 
 9.053e-08 
 5.554e-08 
 3.794e-08 
 3.175e-08 
 1.676e-06 
 3.948e-07 
 1.190e-07 
 5.081e-08 
 5.705e-08 
 4.842e-08 
 2.667e-07 
 1.966e-07 
 2.657e-07 
 1.526e-07 
 6.443e-08 
 1.668e-06 
 3.939e-07 
 2.816e-07 
 1.144e-07 
 2.085e-08 
 9.128e-09 
 1.651e-06 
 3.820e-07 
 1.335e-07 
 8.960e-08 
 5.136e-08 
 6.021e-08 
 8.207e-08 
 1.005e-08 
 1.642e-06 
 3.862e-07 
 2.656e-07 
 1.449e-07 
 3.915e-08 
 2.651e-08 
 2.695e-07 
 2.687e-07 
 1.548e-07 
 1.075e-07 
 1.637e-06 
 3.954e-07 
 2.816e-07 
 4.586e-08 
 3.145e-08 
 9.051e-09 
 1.627e-06 
 3.819e-07 
 2.657e-07 
 1.447e-07 
 3.913e-08 
 2.707e-07 
 2.352e-07 
 2.695e-07 
 1.279e-07 
 1.100e-07 
 1.621e-06 
 3.951e-07 
 2.816e-07 
 4.434e-08 
 1.888e-08 
 9.992e-09 
 1.613e-06 
 3.783e-07 
 2.658e-07 
 1.448e-07 
 3.918e-08 
 2.707e-07 
 2.352e-07 
 2.695e-07 
 1.279e-07 
 1.517e-07 
 1.604e-06 
 3.952e-07 
 2.816e-07 
 1.331e-07 
 4.326e-08 
 3.017e-08 
 3.990e-08 
 5.976e-08 
 5.189e-08 
 4.509e-08 
 8.178e-08 
 5.969e-08 
 1.595e-06 
 3.804e-07 
 2.658e-07 
 1.450e-07 
 3.921e-08 
 3.300e-08 
 2.701e-07 
 2.695e-07 
 1.280e-07 
 1.518e-07 
 1.586e-06 
 3.950e-07 
 2.816e-07 
 1.331e-07 
 4.845e-08 
 3.016e-08 
 1.420e-08 
 1.578e-06 
 3.768e-07 
 2.658e-07 
 1.451e-07 
 3.922e-08 
 3.304e-08 
 2.701e-07 
 2.695e-07 
 1.280e-07 
 1.519e-07 
 1.570e-06 
 3.951e-07 
 2.817e-07 
 1.332e-07 
 1.299e-08 
 1.299e-08 
 1.560e-06 
 3.819e-07 
 2.658e-07 
 1.451e-07 
 3.916e-08 
 3.368e-08 
 2.701e-07 
 2.695e-07 
 1.280e-07 
 1.518e-07 
 1.553e-06 
 3.951e-07 
 2.816e-07 
 1.331e-07 
 4.601e-08 
 5.877e-08 
 1.547e-06 
 3.822e-07 
 2.657e-07 
 1.451e-07 
 3.920e-08 
 3.299e-08 
 2.701e-07 
 2.695e-07 
 1.280e-07 
 1.519e-07 
 1.538e-06 
 3.951e-07 
 2.816e-07 
 1.331e-07 
 2.938e-08 
 1.276e-08 
 1.526e-06 
 3.767e-07 
 2.657e-07 
 1.452e-07 
 3.924e-08 
 3.305e-08 
 2.701e-07 
 2.695e-07 
 1.280e-07 
 1.519e-07 
 1.520e-06 
 3.951e-07 
 2.816e-07 
 1.331e-07 
 3.223e-08 
 1.354e-08 
 1.505e-06 
 3.749e-07 
 2.657e-07 
 1.452e-07 
 4.335e-08 
 3.763e-08 
 2.701e-07 
 2.695e-07 
 1.280e-07 
 1.519e-07 
 8.180e-08 
 1.499e-06 
 3.944e-07 
 2.755e-07 
 2.656e-07 
 2.306e-07 
 2.762e-07 
 1.706e-07 
 2.061e-07 
 1.487e-06 
 3.690e-07 
 1.534e-07 
 1.037e-07 
 2.716e-07 
 1.254e-07 
 5.361e-08 
 3.129e-08 
 1.478e-06 
 3.942e-07 
 2.666e-07 
 2.692e-07 
 2.076e-07 
 1.529e-07 
 1.129e-07 
 1.040e-07 
 4.408e-08 
 2.990e-08 
 1.473e-06 
 3.635e-07 
 1.481e-07 
 5.279e-08 
 2.118e-08 
 4.206e-08 
 4.255e-08 
 2.835e-08 
 1.462e-06 
 3.607e-07 
 2.666e-07 
 1.506e-07 
 1.071e-07 
 8.264e-08 
 5.096e-08 
 3.446e-08 
 3.226e-08 
 2.720e-08 
 2.692e-07 
 2.680e-07 
 1.283e-07 
 1.097e-07 
 1.453e-06 
 3.951e-07 
 2.816e-07 
 8.198e-08 
 1.998e-08 
 2.587e-08 
 1.447e-06 
 3.533e-07 
 1.334e-07 
 8.229e-08 
 7.314e-08 
 6.033e-08 
 8.186e-08 
 1.443e-08 
 1.438e-06 
 3.599e-07 
 1.086e-07 
 6.736e-08 
 8.752e-08 
 2.672e-07 
 2.322e-07 
 2.669e-07 
 1.512e-07 
 4.313e-08 
 2.934e-08 
 1.431e-06 
 3.576e-07 
 1.086e-07 
 8.221e-08 
 6.333e-08 
 5.339e-08 
 2.667e-07 
 2.316e-07 
 2.659e-07 
 1.518e-07 
 6.410e-08 
 1.421e-06 
 3.950e-07 
 2.816e-07 
 1.317e-07 
 8.005e-08 
 1.623e-07 
 6.484e-08 
 1.404e-06 
 3.585e-07 
 1.092e-07 
 4.968e-08 
 7.179e-08 
 4.412e-08 
 4.344e-08 
 3.058e-08 
 1.403e-06 
 3.509e-07 
 1.080e-07 
 7.299e-08 
 4.960e-08 
 2.677e-07 
 2.327e-07 
 2.023e-07 
 2.677e-07 
 1.611e-07 
 1.051e-07 
 9.008e-08 
 5.235e-08 
 8.164e-08 
 6.011e-08 
 1.392e-06 
 3.511e-07 
 1.078e-07 
 7.200e-08 
 4.892e-08 
 3.312e-08 
 2.674e-07 
 2.322e-07 
 2.662e-07 
 1.498e-07 
 6.135e-08 
 1.383e-06 
 3.940e-07 
 2.817e-07 
 1.036e-07 
 5.543e-08 
 1.012e-07 
 1.376e-06 
 3.140e-07 
 2.668e-07 
 1.509e-07 
 3.867e-08 
 3.365e-08 
 2.704e-07 
 2.689e-07 
 1.289e-07 
 1.116e-07 
 1.363e-06 
 3.946e-07 
 2.817e-07 
 3.728e-08 
 2.722e-08 
 1.273e-08 
 1.357e-06 
 3.137e-07 
 2.668e-07 
 1.509e-07 
 3.841e-08 
 2.710e-07 
 2.357e-07 
 2.689e-07 
 1.289e-07 
 1.111e-07 
 1.344e-06 
 3.948e-07 
 2.817e-07 
 6.162e-08 
 1.749e-08 
 2.894e-08 
 1.339e-06 
 3.102e-07 
 2.668e-07 
 1.509e-07 
 3.842e-08 
 2.711e-07 
 2.357e-07 
 2.689e-07 
 1.289e-07 
 1.469e-07 
 1.315e-06 
 3.949e-07 
 2.817e-07 
 1.331e-07 
 2.938e-08 
 3.183e-08 
 1.308e-06 
 3.021e-07 
 2.667e-07 
 1.510e-07 
 3.844e-08 
 3.240e-08 
 2.704e-07 
 2.688e-07 
 1.289e-07 
 1.471e-07 
 1.302e-06 
 3.949e-07 
 2.818e-07 
 1.331e-07 
 2.928e-08 
 2.951e-08 
 1.290e-06 
 2.990e-07 
 1.340e-07 
 6.395e-08 
 7.313e-08 
 1.733e-08 
 2.988e-08 
 1.294e-06 
 3.020e-07 
 1.078e-07 
 5.541e-08 
 4.882e-08 
 2.672e-07 
 2.322e-07 
 2.019e-07 
 2.667e-07 
 1.514e-07 
 9.363e-08 
 3.575e-08 
 1.281e-06 
 3.011e-07 
 1.081e-07 
 7.129e-08 
 4.049e-08 
 8.198e-08 
 6.030e-08 
 5.242e-08 
 2.661e-07 
 2.655e-07 
 1.518e-07 
 6.411e-08 
 1.269e-06 
 3.935e-07 
 2.817e-07 
 9.450e-08 
 7.978e-08 
 1.260e-07 
 4.669e-08 
 1.253e-06 
 2.948e-07 
 1.080e-07 
 5.183e-08 
 7.120e-08 
 3.623e-08 
 1.321e-08 
 1.252e-06 
 2.973e-07 
 1.144e-07 
 6.049e-08 
 2.687e-07 
 2.335e-07 
 2.030e-07 
 2.683e-07 
 1.610e-07 
 1.050e-07 
 7.484e-08 
 1.246e-06 
 2.954e-07 
 1.081e-07 
 1.013e-07 
 6.970e-08 
 5.882e-08 
 2.673e-07 
 2.655e-07 
 1.255e-07 
 6.024e-08 
 1.235e-06 
 4.038e-07 
 2.817e-07 
 6.150e-08 
 2.351e-08 
 5.180e-08 
 1.214e-06 
 2.889e-07 
 1.329e-07 
 6.351e-08 
 7.472e-08 
 2.664e-07 
 1.267e-07 
 2.654e-07 
 1.102e-07 
 9.314e-08 
 1.209e-06 
 2.864e-07 
 8.825e-08 
 5.996e-08 
 5.975e-08 
 2.545e-08 
 1.306e-08 
 1.204e-06 
 2.875e-07 
 1.343e-07 
 6.402e-08 
 6.419e-08 
 2.332e-08 
 2.327e-08 
 2.660e-07 
 2.309e-07 
 2.654e-07 
 1.500e-07 
 1.184e-06 
 2.823e-07 
 1.251e-07 
 4.110e-08 
 6.322e-08 
 2.997e-08 
 1.181e-06 
 2.813e-07 
 1.078e-07 
 7.846e-08 
 5.721e-08 
 2.691e-07 
 1.987e-07 
 1.728e-07 
 2.683e-07 
 1.612e-07 
 1.051e-07 
 1.175e-06 
 2.804e-07 
 1.082e-07 
 4.930e-08 
 6.102e-08 
 2.677e-07 
 2.663e-07 
 1.521e-07 
 6.227e-08 
 1.167e-06 
 3.942e-07 
 2.817e-07 
 1.331e-07 
 1.462e-08 
 5.883e-08 
 1.153e-06 
 2.765e-07 
 1.782e-07 
 1.263e-07 
 3.921e-07 
 2.696e-07 
 1.987e-07 
 1.728e-07 
 1.502e-07 
 2.647e-07 
 2.667e-07 
 2.648e-07 
 1.951e-07 
 1.434e-07 
 3.917e-07 
 2.872e-07 
 2.678e-07 
 2.808e-07 
 2.662e-07 
 1.236e-07 
 1.139e-06 
 2.712e-07 
 1.079e-07 
 7.858e-08 
 6.795e-08 
 8.224e-08 
 7.733e-08 
 1.758e-08 
 1.135e-06 
 2.736e-07 
 1.077e-07 
 7.460e-08 
 6.261e-08 
 5.263e-08 
 2.678e-07 
 1.976e-07 
 2.677e-07 
 1.624e-07 
 4.091e-08 
 3.490e-08 
 1.129e-06 
 2.736e-07 
 2.634e-07 
 2.621e-07 
 1.245e-07 
 1.240e-07 
 8.995e-08 
 2.676e-07 
 2.677e-07 
 1.268e-07 
 1.111e-06 
 2.873e-07 
 1.531e-07 
 9.706e-08 
 7.611e-08 
 1.949e-08 
